Loading pytorch-gpu/py3/2.0.1
  Loading requirement: cuda/11.7.1 nccl/2.12.12-1-cuda cudnn/8.5.0.96-11.7-cuda
    gcc/8.5.0 openmpi/4.1.1-cuda intel-mkl/2020.4 magma/2.7.0-cuda sox/14.4.2
    sparsehash/2.0.3 libjpeg-turbo/2.1.3 ffmpeg/N-94431
+ sh /gpfswork/rech/kdj/unn89uy/USR_QC/jz_usr_qc.sh
