------------------------------------------- START SHELL GNN_QC -----------------------------------------
    >>>>>>>>>>>>>>>>>>>>>>>>     Welcome to USR_QC SUBGRAPHS training from SB  <<<<<<<<<<<<<<<<<<<<<<<<< 

****************** data_from_zarate PARAMETERS *******************
CODE_XP :  GRAPH
general_topic :  ZARATE
to_connex :  True
training_subgraphs :  False
test_k :  [-1, 0, 1, 2, 3, 4]
is_undirected :  True
minimum_links :  1
epochs :  300
gnn_method :  gat
   + layer_dim :  [192]
   + is_test_set :  False
   + are edges weight : True
   + learning_rate_gnn :  0.001
text_model :  False False False
   + text_aggregator :  MEAN
   + batch_bert :  64
   + learning_rate_bert :  2e-05
batch_gnn :  64
device : cuda:0
****************   *   ****   *   ******************


############################# STEP 1 - DATA PROCESSING OF ALL TOPICS ############################# 

/gpfsscratch/rech/kdj/unn89uy/GNN_QC/data/data_objects/USR_QC_connex//ZARATE/RETWEET/dataset_GRAPH.pickle
 - Find 30 topics pre-processed !
*======================================================================================*
-------- graph 1 / 30 : pelosi 1 : pelosi * -------- 

*======================================================================================*
 > already done !
*======================================================================================*
-------- graph 2 / 30 : impeachment-5-10 1 : impeachment-5-10 * -------- 

*======================================================================================*
 > already done !
*======================================================================================*
-------- graph 3 / 30 : menciones-1-10enero 1 : menciones-1-10enero * -------- 

*======================================================================================*
 > already done !
*======================================================================================*
-------- graph 4 / 30 : menciones-20-27marzo 1 : menciones-20-27marzo * -------- 

*======================================================================================*
 > already done !
*======================================================================================*
-------- graph 5 / 30 : area51 0 : area51 * -------- 

*======================================================================================*
 > already done !
*======================================================================================*
-------- graph 6 / 30 : OTDirecto20E 0 : OTDirecto20E * -------- 

*======================================================================================*
 > already done !
*======================================================================================*
-------- graph 7 / 30 : bolsonaro27 1 : bolsonaro27 * -------- 

*======================================================================================*
 > already done !
*======================================================================================*
-------- graph 8 / 30 : bolsonaro28 1 : bolsonaro28 * -------- 

*======================================================================================*
 > already done !
*======================================================================================*
-------- graph 9 / 30 : VanduMuruganAJITH 0 : VanduMuruganAJITH * -------- 

*======================================================================================*
 > already done !
*======================================================================================*
-------- graph 10 / 30 : nintendo 0 : nintendo * -------- 

*======================================================================================*
 > already done !
*======================================================================================*
-------- graph 11 / 30 : messicumple 0 : messicumple * -------- 

*======================================================================================*
 > already done !
*======================================================================================*
-------- graph 12 / 30 : wrestlemania 0 : wrestlemania * -------- 

*======================================================================================*
 > already done !
*======================================================================================*
-------- graph 13 / 30 : kingjacksonday 0 : kingjacksonday * -------- 

*======================================================================================*
 > already done !
*======================================================================================*
-------- graph 14 / 30 : kavanaugh06-08 1 : kavanaugh06-08 * -------- 

*======================================================================================*
 > already done !
*======================================================================================*
-------- graph 15 / 30 : bolsonaro30 1 : bolsonaro30 * -------- 

*======================================================================================*
 > already done !
*======================================================================================*
-------- graph 16 / 30 : notredam 0 : notredam * -------- 

*======================================================================================*
 > already done !
*======================================================================================*
-------- graph 17 / 30 : Thanksgiving 0 : Thanksgiving * -------- 

*======================================================================================*
 > already done !
*======================================================================================*
-------- graph 18 / 30 : halsey 0 : halsey * -------- 

*======================================================================================*
 > already done !
*======================================================================================*
-------- graph 19 / 30 : feliznatal 0 : feliznatal * -------- 

*======================================================================================*
 > already done !
*======================================================================================*
-------- graph 20 / 30 : kavanaugh16 1 : kavanaugh16 * -------- 

*======================================================================================*
 > already done !
*======================================================================================*
-------- graph 21 / 30 : kavanaugh02-05 1 : kavanaugh02-05 * -------- 

*======================================================================================*
 > already done !
*======================================================================================*
-------- graph 22 / 30 : EXODEUX 0 : EXODEUX * -------- 

*======================================================================================*
 > already done !
*======================================================================================*
-------- graph 23 / 30 : bigil 0 : bigil * -------- 

*======================================================================================*
 > already done !
*======================================================================================*
-------- graph 24 / 30 : lula_moro_chats 1 : lula_moro_chats * -------- 

*======================================================================================*
 > already done !
*======================================================================================*
-------- graph 25 / 30 : menciones-05-11abril 1 : menciones-05-11abril * -------- 

*======================================================================================*
 > already done !
*======================================================================================*
-------- graph 26 / 30 : LeadersDebate 1 : LeadersDebate * -------- 

*======================================================================================*
 > already done !
*======================================================================================*
-------- graph 27 / 30 : championsasia 0 : championsasia * -------- 

*======================================================================================*
 > already done !
*======================================================================================*
-------- graph 28 / 30 : menciones05-11mayo 1 : menciones05-11mayo * -------- 

*======================================================================================*
 > already done !
*======================================================================================*
-------- graph 29 / 30 : SeungWooBirthday 0 : SeungWooBirthday * -------- 

*======================================================================================*
 > already done !
*======================================================================================*
-------- graph 30 / 30 : menciones-11-18marzo 1 : menciones-11-18marzo * -------- 

*======================================================================================*
 > already done !
 ********* TIME STEP 1: DATA PROCESSING -->  0.0 hours *********




############################# STEP 2 - TRAINING MODEL #############################
   **  False  --  False  --  False ** 

 >>>> TRAIN_SET 20  \  TEST_SET 10

 ### 1. Get model gat  + criterion + optimizer on cuda:0
> text aggreg: MEAN
     > (shape feature + layer_dimension): 1 [192]
-- nbs_layer: 2 | num_heads_by_layer: 1 --
--- model layer
['embedding_text_layer.weight', 'embedding_text_layer.bias', 'gnn_model.conv1.attn_l', 'gnn_model.conv1.attn_r', 'gnn_model.conv1.bias', 'gnn_model.conv1.fc.weight', 'gnn_model.pred_layer.attn_l', 'gnn_model.pred_layer.attn_r', 'gnn_model.pred_layer.bias', 'gnn_model.pred_layer.fc.weight']
 --- 1.  0.04 min ---

 ### 2. Train GNN
 > min_nodes: 8022
 >> early_stop= 100
------------------ 0 ---------------------------
 ! best model !
In epoch 0, train loss: 0.720 + train acc: 0.450 || test acc: 0.413
           > BEST: In epoch 0, train_loss: 0.720 + train_acc: 0.450 || test_acc: 0.413, loss:0.729
 --> time : 0.36 min ---  80220 80220 530498 372706
------------------------------------------------- 

------------------ 1 ---------------------------
 ! best model !
In epoch 1, train loss: 0.698 + train acc: 0.500 || test acc: 0.413
           > BEST: In epoch 1, train_loss: 0.698 + train_acc: 0.500 || test_acc: 0.413, loss:0.720
 --> time : 0.32 min ---  80220 80220 530498 372706
------------------------------------------------- 

------------------ 2 ---------------------------
 ! best model !
In epoch 2, train loss: 0.696 + train acc: 0.500 || test acc: 0.413
           > BEST: In epoch 2, train_loss: 0.696 + train_acc: 0.500 || test_acc: 0.413, loss:0.712
 --> time : 0.33 min ---  80220 80220 530498 372706
------------------------------------------------- 

------------------ 3 ---------------------------
 ! best model !
In epoch 3, train loss: 0.695 + train acc: 0.500 || test acc: 0.413
           > BEST: In epoch 3, train_loss: 0.695 + train_acc: 0.500 || test_acc: 0.413, loss:0.707
 --> time : 0.33 min ---  80220 80220 530498 372706
------------------------------------------------- 

------------------ 4 ---------------------------
 ! best model !
In epoch 4, train loss: 0.695 + train acc: 0.500 || test acc: 0.413
           > BEST: In epoch 4, train_loss: 0.695 + train_acc: 0.500 || test_acc: 0.413, loss:0.704
 --> time : 0.33 min ---  80220 80220 530498 372706
------------------------------------------------- 

------------------ 5 ---------------------------
 ! best model !
In epoch 5, train loss: 0.695 + train acc: 0.500 || test acc: 0.413
           > BEST: In epoch 5, train_loss: 0.695 + train_acc: 0.500 || test_acc: 0.413, loss:0.701
 --> time : 0.33 min ---  80220 80220 530498 372706
------------------------------------------------- 

------------------ 6 ---------------------------
 ! best model !
In epoch 6, train loss: 0.695 + train acc: 0.500 || test acc: 0.413
           > BEST: In epoch 6, train_loss: 0.695 + train_acc: 0.500 || test_acc: 0.413, loss:0.700
 --> time : 0.33 min ---  80220 80220 530498 372706
------------------------------------------------- 

------------------ 7 ---------------------------
 ! best model !
In epoch 7, train loss: 0.695 + train acc: 0.500 || test acc: 0.413
           > BEST: In epoch 7, train_loss: 0.695 + train_acc: 0.500 || test_acc: 0.413, loss:0.698
 --> time : 0.33 min ---  80220 80220 530498 372706
------------------------------------------------- 

------------------ 8 ---------------------------
 ! best model !
In epoch 8, train loss: 0.694 + train acc: 0.500 || test acc: 0.413
           > BEST: In epoch 8, train_loss: 0.694 + train_acc: 0.500 || test_acc: 0.413, loss:0.697
 --> time : 0.33 min ---  80220 80220 530498 372706
------------------------------------------------- 

------------------ 9 ---------------------------
 ! best model !
In epoch 9, train loss: 0.694 + train acc: 0.500 || test acc: 0.413
           > BEST: In epoch 9, train_loss: 0.694 + train_acc: 0.500 || test_acc: 0.413, loss:0.697
 --> time : 0.33 min ---  80220 80220 530498 372706
------------------------------------------------- 

------------------ 10 ---------------------------
 ! best model !
In epoch 10, train loss: 0.694 + train acc: 0.500 || test acc: 0.413
           > BEST: In epoch 10, train_loss: 0.694 + train_acc: 0.500 || test_acc: 0.413, loss:0.696
 --> time : 0.33 min ---  80220 80220 530498 372706
------------------------------------------------- 

------------------ 11 ---------------------------
 ! best model !
In epoch 11, train loss: 0.694 + train acc: 0.500 || test acc: 0.413
           > BEST: In epoch 11, train_loss: 0.694 + train_acc: 0.500 || test_acc: 0.413, loss:0.696
 --> time : 0.33 min ---  80220 80220 530498 372706
------------------------------------------------- 

------------------ 12 ---------------------------
 ! best model !
In epoch 12, train loss: 0.694 + train acc: 0.500 || test acc: 0.413
           > BEST: In epoch 12, train_loss: 0.694 + train_acc: 0.500 || test_acc: 0.413, loss:0.695
 --> time : 0.33 min ---  80220 80220 530498 372706
------------------------------------------------- 

------------------ 13 ---------------------------
 ! best model !
In epoch 13, train loss: 0.694 + train acc: 0.500 || test acc: 0.413
           > BEST: In epoch 13, train_loss: 0.694 + train_acc: 0.500 || test_acc: 0.413, loss:0.695
 --> time : 0.33 min ---  80220 80220 530498 372706
------------------------------------------------- 

------------------ 14 ---------------------------
 ! best model !
In epoch 14, train loss: 0.694 + train acc: 0.500 || test acc: 0.413
           > BEST: In epoch 14, train_loss: 0.694 + train_acc: 0.500 || test_acc: 0.413, loss:0.695
 --> time : 0.33 min ---  80220 80220 530498 372706
------------------------------------------------- 

------------------ 15 ---------------------------
 ! best model !
In epoch 15, train loss: 0.694 + train acc: 0.500 || test acc: 0.413
           > BEST: In epoch 15, train_loss: 0.694 + train_acc: 0.500 || test_acc: 0.413, loss:0.694
 --> time : 0.33 min ---  80220 80220 530498 372706
------------------------------------------------- 

------------------ 16 ---------------------------
 ! best model !
In epoch 16, train loss: 0.694 + train acc: 0.500 || test acc: 0.413
           > BEST: In epoch 16, train_loss: 0.694 + train_acc: 0.500 || test_acc: 0.413, loss:0.694
 --> time : 0.33 min ---  80220 80220 530498 372706
------------------------------------------------- 

------------------ 17 ---------------------------
 ! best model !
In epoch 17, train loss: 0.694 + train acc: 0.500 || test acc: 0.413
           > BEST: In epoch 17, train_loss: 0.694 + train_acc: 0.500 || test_acc: 0.413, loss:0.694
 --> time : 0.33 min ---  80220 80220 530498 372706
------------------------------------------------- 

------------------ 18 ---------------------------
 ! best model !
In epoch 18, train loss: 0.694 + train acc: 0.500 || test acc: 0.413
           > BEST: In epoch 18, train_loss: 0.694 + train_acc: 0.500 || test_acc: 0.413, loss:0.694
 --> time : 0.33 min ---  80220 80220 530498 372706
------------------------------------------------- 

------------------ 19 ---------------------------
 ! best model !
In epoch 19, train loss: 0.694 + train acc: 0.500 || test acc: 0.413
           > BEST: In epoch 19, train_loss: 0.694 + train_acc: 0.500 || test_acc: 0.413, loss:0.694
 --> time : 0.33 min ---  80220 80220 530498 372706
------------------------------------------------- 

------------------ 20 ---------------------------
 ! best model !
In epoch 20, train loss: 0.694 + train acc: 0.500 || test acc: 0.413
           > BEST: In epoch 20, train_loss: 0.694 + train_acc: 0.500 || test_acc: 0.413, loss:0.694
 --> time : 0.33 min ---  80220 80220 530498 372706
------------------------------------------------- 

------------------ 21 ---------------------------
 ! best model !
In epoch 21, train loss: 0.694 + train acc: 0.500 || test acc: 0.413
           > BEST: In epoch 21, train_loss: 0.694 + train_acc: 0.500 || test_acc: 0.413, loss:0.694
 --> time : 0.33 min ---  80220 80220 530498 372706
------------------------------------------------- 

------------------ 22 ---------------------------
 ! best model !
In epoch 22, train loss: 0.694 + train acc: 0.500 || test acc: 0.413
           > BEST: In epoch 22, train_loss: 0.694 + train_acc: 0.500 || test_acc: 0.413, loss:0.694
 --> time : 0.33 min ---  80220 80220 530498 372706
------------------------------------------------- 

------------------ 23 ---------------------------
 ! best model !
In epoch 23, train loss: 0.694 + train acc: 0.500 || test acc: 0.413
           > BEST: In epoch 23, train_loss: 0.694 + train_acc: 0.500 || test_acc: 0.413, loss:0.694
 --> time : 0.33 min ---  80220 80220 530498 372706
------------------------------------------------- 

------------------ 24 ---------------------------
 ! best model !
In epoch 24, train loss: 0.694 + train acc: 0.500 || test acc: 0.413
           > BEST: In epoch 24, train_loss: 0.694 + train_acc: 0.500 || test_acc: 0.413, loss:0.694
 --> time : 0.33 min ---  80220 80220 530498 372706
------------------------------------------------- 

------------------ 25 ---------------------------
 ! best model !
In epoch 25, train loss: 0.694 + train acc: 0.500 || test acc: 0.413
           > BEST: In epoch 25, train_loss: 0.694 + train_acc: 0.500 || test_acc: 0.413, loss:0.694
 --> time : 0.33 min ---  80220 80220 530498 372706
------------------------------------------------- 

------------------ 26 ---------------------------
In epoch 26, train loss: 0.694 + train acc: 0.500 || test acc: 0.413
           > BEST: In epoch 25, train_loss: 0.694 + train_acc: 0.500 || test_acc: 0.413, loss:0.694
 --> time : 0.33 min ---  80220 80220 530498 372706
------------------------------------------------- 

------------------ 27 ---------------------------
 ! best model !
In epoch 27, train loss: 0.694 + train acc: 0.500 || test acc: 0.413
           > BEST: In epoch 27, train_loss: 0.694 + train_acc: 0.500 || test_acc: 0.413, loss:0.694
 --> time : 0.33 min ---  80220 80220 530498 372706
------------------------------------------------- 

------------------ 28 ---------------------------
 ! best model !
In epoch 28, train loss: 0.694 + train acc: 0.500 || test acc: 0.413
           > BEST: In epoch 28, train_loss: 0.694 + train_acc: 0.500 || test_acc: 0.413, loss:0.694
 --> time : 0.33 min ---  80220 80220 530498 372706
------------------------------------------------- 

------------------ 29 ---------------------------
In epoch 29, train loss: 0.694 + train acc: 0.500 || test acc: 0.413
           > BEST: In epoch 28, train_loss: 0.694 + train_acc: 0.500 || test_acc: 0.413, loss:0.694
 --> time : 0.33 min ---  80220 80220 530498 372706
------------------------------------------------- 

------------------ 30 ---------------------------
In epoch 30, train loss: 0.694 + train acc: 0.500 || test acc: 0.413
           > BEST: In epoch 28, train_loss: 0.694 + train_acc: 0.500 || test_acc: 0.413, loss:0.694
 --> time : 0.33 min ---  80220 80220 530498 372706
------------------------------------------------- 

------------------ 31 ---------------------------
 ! best model !
In epoch 31, train loss: 0.694 + train acc: 0.500 || test acc: 0.413
           > BEST: In epoch 31, train_loss: 0.694 + train_acc: 0.500 || test_acc: 0.413, loss:0.694
 --> time : 0.33 min ---  80220 80220 530498 372706
------------------------------------------------- 

------------------ 32 ---------------------------
 ! best model !
In epoch 32, train loss: 0.694 + train acc: 0.500 || test acc: 0.413
           > BEST: In epoch 32, train_loss: 0.694 + train_acc: 0.500 || test_acc: 0.413, loss:0.694
 --> time : 0.33 min ---  80220 80220 530498 372706
------------------------------------------------- 

------------------ 33 ---------------------------
 ! best model !
In epoch 33, train loss: 0.694 + train acc: 0.500 || test acc: 0.413
           > BEST: In epoch 33, train_loss: 0.694 + train_acc: 0.500 || test_acc: 0.413, loss:0.693
 --> time : 0.33 min ---  80220 80220 530498 372706
------------------------------------------------- 

------------------ 34 ---------------------------
 ! best model !
In epoch 34, train loss: 0.694 + train acc: 0.500 || test acc: 0.413
           > BEST: In epoch 34, train_loss: 0.694 + train_acc: 0.500 || test_acc: 0.413, loss:0.693
 --> time : 0.33 min ---  80220 80220 530498 372706
------------------------------------------------- 

------------------ 35 ---------------------------
In epoch 35, train loss: 0.694 + train acc: 0.500 || test acc: 0.413
           > BEST: In epoch 34, train_loss: 0.694 + train_acc: 0.500 || test_acc: 0.413, loss:0.693
 --> time : 0.32 min ---  80220 80220 530498 372706
------------------------------------------------- 

------------------ 36 ---------------------------
In epoch 36, train loss: 0.694 + train acc: 0.500 || test acc: 0.413
           > BEST: In epoch 34, train_loss: 0.694 + train_acc: 0.500 || test_acc: 0.413, loss:0.693
 --> time : 0.32 min ---  80220 80220 530498 372706
------------------------------------------------- 

------------------ 37 ---------------------------
In epoch 37, train loss: 0.694 + train acc: 0.500 || test acc: 0.413
           > BEST: In epoch 34, train_loss: 0.694 + train_acc: 0.500 || test_acc: 0.413, loss:0.693
 --> time : 0.32 min ---  80220 80220 530498 372706
------------------------------------------------- 

------------------ 38 ---------------------------
In epoch 38, train loss: 0.694 + train acc: 0.500 || test acc: 0.413
           > BEST: In epoch 34, train_loss: 0.694 + train_acc: 0.500 || test_acc: 0.413, loss:0.693
 --> time : 0.32 min ---  80220 80220 530498 372706
------------------------------------------------- 

------------------ 39 ---------------------------
 ! best model !
In epoch 39, train loss: 0.694 + train acc: 0.500 || test acc: 0.413
           > BEST: In epoch 39, train_loss: 0.694 + train_acc: 0.500 || test_acc: 0.413, loss:0.693
 --> time : 0.33 min ---  80220 80220 530498 372706
------------------------------------------------- 

------------------ 40 ---------------------------
 ! best model !
In epoch 40, train loss: 0.694 + train acc: 0.500 || test acc: 0.413
           > BEST: In epoch 40, train_loss: 0.694 + train_acc: 0.500 || test_acc: 0.413, loss:0.693
 --> time : 0.33 min ---  80220 80220 530498 372706
------------------------------------------------- 

------------------ 41 ---------------------------
 ! best model !
In epoch 41, train loss: 0.694 + train acc: 0.500 || test acc: 0.413
           > BEST: In epoch 41, train_loss: 0.694 + train_acc: 0.500 || test_acc: 0.413, loss:0.693
 --> time : 0.33 min ---  80220 80220 530498 372706
------------------------------------------------- 

------------------ 42 ---------------------------
 ! best model !
In epoch 42, train loss: 0.694 + train acc: 0.500 || test acc: 0.413
           > BEST: In epoch 42, train_loss: 0.694 + train_acc: 0.500 || test_acc: 0.413, loss:0.693
 --> time : 0.33 min ---  80220 80220 530498 372706
------------------------------------------------- 

------------------ 43 ---------------------------
 ! best model !
In epoch 43, train loss: 0.694 + train acc: 0.500 || test acc: 0.413
           > BEST: In epoch 43, train_loss: 0.694 + train_acc: 0.500 || test_acc: 0.413, loss:0.693
 --> time : 0.33 min ---  80220 80220 530498 372706
------------------------------------------------- 

------------------ 44 ---------------------------
 ! best model !
In epoch 44, train loss: 0.694 + train acc: 0.500 || test acc: 0.413
           > BEST: In epoch 44, train_loss: 0.694 + train_acc: 0.500 || test_acc: 0.413, loss:0.693
 --> time : 0.33 min ---  80220 80220 530498 372706
------------------------------------------------- 

------------------ 45 ---------------------------
In epoch 45, train loss: 0.694 + train acc: 0.500 || test acc: 0.413
           > BEST: In epoch 44, train_loss: 0.694 + train_acc: 0.500 || test_acc: 0.413, loss:0.693
 --> time : 0.33 min ---  80220 80220 530498 372706
------------------------------------------------- 

------------------ 46 ---------------------------
In epoch 46, train loss: 0.694 + train acc: 0.500 || test acc: 0.413
           > BEST: In epoch 44, train_loss: 0.694 + train_acc: 0.500 || test_acc: 0.413, loss:0.693
 --> time : 0.33 min ---  80220 80220 530498 372706
------------------------------------------------- 

------------------ 47 ---------------------------
In epoch 47, train loss: 0.694 + train acc: 0.500 || test acc: 0.413
           > BEST: In epoch 44, train_loss: 0.694 + train_acc: 0.500 || test_acc: 0.413, loss:0.693
 --> time : 0.33 min ---  80220 80220 530498 372706
------------------------------------------------- 

------------------ 48 ---------------------------
In epoch 48, train loss: 0.694 + train acc: 0.500 || test acc: 0.413
           > BEST: In epoch 44, train_loss: 0.694 + train_acc: 0.500 || test_acc: 0.413, loss:0.693
 --> time : 0.33 min ---  80220 80220 530498 372706
------------------------------------------------- 

------------------ 49 ---------------------------
 ! best model !
In epoch 49, train loss: 0.694 + train acc: 0.500 || test acc: 0.413
           > BEST: In epoch 49, train_loss: 0.694 + train_acc: 0.500 || test_acc: 0.413, loss:0.693
 --> time : 0.33 min ---  80220 80220 530498 372706
------------------------------------------------- 

------------------ 50 ---------------------------
 ! best model !
In epoch 50, train loss: 0.694 + train acc: 0.500 || test acc: 0.413
           > BEST: In epoch 50, train_loss: 0.694 + train_acc: 0.500 || test_acc: 0.413, loss:0.693
 --> time : 0.33 min ---  80220 80220 530498 372706
------------------------------------------------- 

------------------ 51 ---------------------------
In epoch 51, train loss: 0.694 + train acc: 0.500 || test acc: 0.413
           > BEST: In epoch 50, train_loss: 0.694 + train_acc: 0.500 || test_acc: 0.413, loss:0.693
 --> time : 0.33 min ---  80220 80220 530498 372706
------------------------------------------------- 

------------------ 52 ---------------------------
In epoch 52, train loss: 0.694 + train acc: 0.500 || test acc: 0.413
           > BEST: In epoch 50, train_loss: 0.694 + train_acc: 0.500 || test_acc: 0.413, loss:0.693
 --> time : 0.33 min ---  80220 80220 530498 372706
------------------------------------------------- 

------------------ 53 ---------------------------
 ! best model !
In epoch 53, train loss: 0.694 + train acc: 0.500 || test acc: 0.413
           > BEST: In epoch 53, train_loss: 0.694 + train_acc: 0.500 || test_acc: 0.413, loss:0.693
 --> time : 0.33 min ---  80220 80220 530498 372706
------------------------------------------------- 

------------------ 54 ---------------------------
 ! best model !
In epoch 54, train loss: 0.694 + train acc: 0.500 || test acc: 0.413
           > BEST: In epoch 54, train_loss: 0.694 + train_acc: 0.500 || test_acc: 0.413, loss:0.693
 --> time : 0.33 min ---  80220 80220 530498 372706
------------------------------------------------- 

------------------ 55 ---------------------------
 ! best model !
In epoch 55, train loss: 0.694 + train acc: 0.500 || test acc: 0.413
           > BEST: In epoch 55, train_loss: 0.694 + train_acc: 0.500 || test_acc: 0.413, loss:0.693
 --> time : 0.33 min ---  80220 80220 530498 372706
------------------------------------------------- 

------------------ 56 ---------------------------
In epoch 56, train loss: 0.694 + train acc: 0.500 || test acc: 0.413
           > BEST: In epoch 55, train_loss: 0.694 + train_acc: 0.500 || test_acc: 0.413, loss:0.693
 --> time : 0.32 min ---  80220 80220 530498 372706
------------------------------------------------- 

------------------ 57 ---------------------------
In epoch 57, train loss: 0.694 + train acc: 0.350 || test acc: 0.413
           > BEST: In epoch 55, train_loss: 0.694 + train_acc: 0.500 || test_acc: 0.413, loss:0.693
 --> time : 0.33 min ---  80220 80220 530498 372706
------------------------------------------------- 

------------------ 58 ---------------------------
In epoch 58, train loss: 0.694 + train acc: 0.500 || test acc: 0.413
           > BEST: In epoch 55, train_loss: 0.694 + train_acc: 0.500 || test_acc: 0.413, loss:0.693
 --> time : 0.33 min ---  80220 80220 530498 372706
------------------------------------------------- 

------------------ 59 ---------------------------
In epoch 59, train loss: 0.694 + train acc: 0.500 || test acc: 0.413
           > BEST: In epoch 55, train_loss: 0.694 + train_acc: 0.500 || test_acc: 0.413, loss:0.693
 --> time : 0.33 min ---  80220 80220 530498 372706
------------------------------------------------- 

------------------ 60 ---------------------------
In epoch 60, train loss: 0.694 + train acc: 0.500 || test acc: 0.413
           > BEST: In epoch 55, train_loss: 0.694 + train_acc: 0.500 || test_acc: 0.413, loss:0.693
 --> time : 0.33 min ---  80220 80220 530498 372706
------------------------------------------------- 

------------------ 61 ---------------------------
In epoch 61, train loss: 0.694 + train acc: 0.500 || test acc: 0.413
           > BEST: In epoch 55, train_loss: 0.694 + train_acc: 0.500 || test_acc: 0.413, loss:0.693
 --> time : 0.33 min ---  80220 80220 530498 372706
------------------------------------------------- 

------------------ 62 ---------------------------
In epoch 62, train loss: 0.694 + train acc: 0.500 || test acc: 0.413
           > BEST: In epoch 55, train_loss: 0.694 + train_acc: 0.500 || test_acc: 0.413, loss:0.693
 --> time : 0.33 min ---  80220 80220 530498 372706
------------------------------------------------- 

------------------ 63 ---------------------------
In epoch 63, train loss: 0.694 + train acc: 0.500 || test acc: 0.413
           > BEST: In epoch 55, train_loss: 0.694 + train_acc: 0.500 || test_acc: 0.413, loss:0.693
 --> time : 0.33 min ---  80220 80220 530498 372706
------------------------------------------------- 

------------------ 64 ---------------------------
In epoch 64, train loss: 0.694 + train acc: 0.500 || test acc: 0.413
           > BEST: In epoch 55, train_loss: 0.694 + train_acc: 0.500 || test_acc: 0.413, loss:0.693
 --> time : 0.33 min ---  80220 80220 530498 372706
------------------------------------------------- 

------------------ 65 ---------------------------
In epoch 65, train loss: 0.694 + train acc: 0.500 || test acc: 0.413
           > BEST: In epoch 55, train_loss: 0.694 + train_acc: 0.500 || test_acc: 0.413, loss:0.693
 --> time : 0.33 min ---  80220 80220 530498 372706
------------------------------------------------- 

------------------ 66 ---------------------------
In epoch 66, train loss: 0.694 + train acc: 0.500 || test acc: 0.413
           > BEST: In epoch 55, train_loss: 0.694 + train_acc: 0.500 || test_acc: 0.413, loss:0.693
 --> time : 0.33 min ---  80220 80220 530498 372706
------------------------------------------------- 

------------------ 67 ---------------------------
In epoch 67, train loss: 0.694 + train acc: 0.500 || test acc: 0.413
           > BEST: In epoch 55, train_loss: 0.694 + train_acc: 0.500 || test_acc: 0.413, loss:0.693
 --> time : 0.33 min ---  80220 80220 530498 372706
------------------------------------------------- 

------------------ 68 ---------------------------
In epoch 68, train loss: 0.694 + train acc: 0.500 || test acc: 0.413
           > BEST: In epoch 55, train_loss: 0.694 + train_acc: 0.500 || test_acc: 0.413, loss:0.693
 --> time : 0.33 min ---  80220 80220 530498 372706
------------------------------------------------- 

------------------ 69 ---------------------------
In epoch 69, train loss: 0.694 + train acc: 0.250 || test acc: 0.413
           > BEST: In epoch 55, train_loss: 0.694 + train_acc: 0.500 || test_acc: 0.413, loss:0.693
 --> time : 0.33 min ---  80220 80220 530498 372706
------------------------------------------------- 

------------------ 70 ---------------------------
In epoch 70, train loss: 0.694 + train acc: 0.300 || test acc: 0.413
           > BEST: In epoch 55, train_loss: 0.694 + train_acc: 0.500 || test_acc: 0.413, loss:0.693
 --> time : 0.33 min ---  80220 80220 530498 372706
------------------------------------------------- 

------------------ 71 ---------------------------
In epoch 71, train loss: 0.694 + train acc: 0.500 || test acc: 0.413
           > BEST: In epoch 55, train_loss: 0.694 + train_acc: 0.500 || test_acc: 0.413, loss:0.693
 --> time : 0.33 min ---  80220 80220 530498 372706
------------------------------------------------- 

------------------ 72 ---------------------------
In epoch 72, train loss: 0.694 + train acc: 0.500 || test acc: 0.413
           > BEST: In epoch 55, train_loss: 0.694 + train_acc: 0.500 || test_acc: 0.413, loss:0.693
 --> time : 0.33 min ---  80220 80220 530498 372706
------------------------------------------------- 

------------------ 73 ---------------------------
In epoch 73, train loss: 0.694 + train acc: 0.500 || test acc: 0.413
           > BEST: In epoch 55, train_loss: 0.694 + train_acc: 0.500 || test_acc: 0.413, loss:0.693
 --> time : 0.33 min ---  80220 80220 530498 372706
------------------------------------------------- 

------------------ 74 ---------------------------
In epoch 74, train loss: 0.694 + train acc: 0.500 || test acc: 0.413
           > BEST: In epoch 55, train_loss: 0.694 + train_acc: 0.500 || test_acc: 0.413, loss:0.693
 --> time : 0.33 min ---  80220 80220 530498 372706
------------------------------------------------- 

------------------ 75 ---------------------------
In epoch 75, train loss: 0.694 + train acc: 0.350 || test acc: 0.413
           > BEST: In epoch 55, train_loss: 0.694 + train_acc: 0.500 || test_acc: 0.413, loss:0.693
 --> time : 0.33 min ---  80220 80220 530498 372706
------------------------------------------------- 

------------------ 76 ---------------------------
In epoch 76, train loss: 0.694 + train acc: 0.350 || test acc: 0.413
           > BEST: In epoch 55, train_loss: 0.694 + train_acc: 0.500 || test_acc: 0.413, loss:0.693
 --> time : 0.33 min ---  80220 80220 530498 372706
------------------------------------------------- 

------------------ 77 ---------------------------
In epoch 77, train loss: 0.694 + train acc: 0.500 || test acc: 0.413
           > BEST: In epoch 55, train_loss: 0.694 + train_acc: 0.500 || test_acc: 0.413, loss:0.693
 --> time : 0.33 min ---  80220 80220 530498 372706
------------------------------------------------- 

------------------ 78 ---------------------------
In epoch 78, train loss: 0.694 + train acc: 0.500 || test acc: 0.413
           > BEST: In epoch 55, train_loss: 0.694 + train_acc: 0.500 || test_acc: 0.413, loss:0.693
 --> time : 0.33 min ---  80220 80220 530498 372706
------------------------------------------------- 

------------------ 79 ---------------------------
In epoch 79, train loss: 0.694 + train acc: 0.450 || test acc: 0.413
           > BEST: In epoch 55, train_loss: 0.694 + train_acc: 0.500 || test_acc: 0.413, loss:0.693
 --> time : 0.33 min ---  80220 80220 530498 372706
------------------------------------------------- 

------------------ 80 ---------------------------
In epoch 80, train loss: 0.694 + train acc: 0.500 || test acc: 0.413
           > BEST: In epoch 55, train_loss: 0.694 + train_acc: 0.500 || test_acc: 0.413, loss:0.693
 --> time : 0.33 min ---  80220 80220 530498 372706
------------------------------------------------- 

------------------ 81 ---------------------------
In epoch 81, train loss: 0.694 + train acc: 0.400 || test acc: 0.413
           > BEST: In epoch 55, train_loss: 0.694 + train_acc: 0.500 || test_acc: 0.413, loss:0.693
 --> time : 0.33 min ---  80220 80220 530498 372706
------------------------------------------------- 

------------------ 82 ---------------------------
In epoch 82, train loss: 0.694 + train acc: 0.400 || test acc: 0.413
           > BEST: In epoch 55, train_loss: 0.694 + train_acc: 0.500 || test_acc: 0.413, loss:0.693
 --> time : 0.33 min ---  80220 80220 530498 372706
------------------------------------------------- 

------------------ 83 ---------------------------
In epoch 83, train loss: 0.694 + train acc: 0.400 || test acc: 0.413
           > BEST: In epoch 55, train_loss: 0.694 + train_acc: 0.500 || test_acc: 0.413, loss:0.693
 --> time : 0.33 min ---  80220 80220 530498 372706
------------------------------------------------- 

------------------ 84 ---------------------------
In epoch 84, train loss: 0.694 + train acc: 0.350 || test acc: 0.413
           > BEST: In epoch 55, train_loss: 0.694 + train_acc: 0.500 || test_acc: 0.413, loss:0.693
 --> time : 0.33 min ---  80220 80220 530498 372706
------------------------------------------------- 

------------------ 85 ---------------------------
In epoch 85, train loss: 0.694 + train acc: 0.350 || test acc: 0.413
           > BEST: In epoch 55, train_loss: 0.694 + train_acc: 0.500 || test_acc: 0.413, loss:0.693
 --> time : 0.33 min ---  80220 80220 530498 372706
------------------------------------------------- 

------------------ 86 ---------------------------
In epoch 86, train loss: 0.694 + train acc: 0.350 || test acc: 0.413
           > BEST: In epoch 55, train_loss: 0.694 + train_acc: 0.500 || test_acc: 0.413, loss:0.693
 --> time : 0.33 min ---  80220 80220 530498 372706
------------------------------------------------- 

------------------ 87 ---------------------------
In epoch 87, train loss: 0.694 + train acc: 0.350 || test acc: 0.413
           > BEST: In epoch 55, train_loss: 0.694 + train_acc: 0.500 || test_acc: 0.413, loss:0.693
 --> time : 0.33 min ---  80220 80220 530498 372706
------------------------------------------------- 

------------------ 88 ---------------------------
 ! best model !
In epoch 88, train loss: 0.694 + train acc: 0.300 || test acc: 0.587
           > BEST: In epoch 88, train_loss: 0.694 + train_acc: 0.300 || test_acc: 0.587, loss:0.693
 --> time : 0.33 min ---  80220 80220 530498 372706
------------------------------------------------- 

------------------ 89 ---------------------------
In epoch 89, train loss: 0.694 + train acc: 0.150 || test acc: 0.413
           > BEST: In epoch 88, train_loss: 0.694 + train_acc: 0.300 || test_acc: 0.587, loss:0.693
 --> time : 0.33 min ---  80220 80220 530498 372706
------------------------------------------------- 

------------------ 90 ---------------------------
In epoch 90, train loss: 0.694 + train acc: 0.200 || test acc: 0.413
           > BEST: In epoch 88, train_loss: 0.694 + train_acc: 0.300 || test_acc: 0.587, loss:0.693
 --> time : 0.33 min ---  80220 80220 530498 372706
------------------------------------------------- 

------------------ 91 ---------------------------
In epoch 91, train loss: 0.694 + train acc: 0.300 || test acc: 0.413
           > BEST: In epoch 88, train_loss: 0.694 + train_acc: 0.300 || test_acc: 0.587, loss:0.693
 --> time : 0.33 min ---  80220 80220 530498 372706
------------------------------------------------- 

------------------ 92 ---------------------------
In epoch 92, train loss: 0.694 + train acc: 0.300 || test acc: 0.413
           > BEST: In epoch 88, train_loss: 0.694 + train_acc: 0.300 || test_acc: 0.587, loss:0.693
 --> time : 0.33 min ---  80220 80220 530498 372706
------------------------------------------------- 

------------------ 93 ---------------------------
In epoch 93, train loss: 0.694 + train acc: 0.300 || test acc: 0.413
           > BEST: In epoch 88, train_loss: 0.694 + train_acc: 0.300 || test_acc: 0.587, loss:0.693
 --> time : 0.33 min ---  80220 80220 530498 372706
------------------------------------------------- 

------------------ 94 ---------------------------
In epoch 94, train loss: 0.694 + train acc: 0.300 || test acc: 0.413
           > BEST: In epoch 88, train_loss: 0.694 + train_acc: 0.300 || test_acc: 0.587, loss:0.693
 --> time : 0.33 min ---  80220 80220 530498 372706
------------------------------------------------- 

------------------ 95 ---------------------------
In epoch 95, train loss: 0.694 + train acc: 0.300 || test acc: 0.413
           > BEST: In epoch 88, train_loss: 0.694 + train_acc: 0.300 || test_acc: 0.587, loss:0.693
 --> time : 0.33 min ---  80220 80220 530498 372706
------------------------------------------------- 

------------------ 96 ---------------------------
In epoch 96, train loss: 0.694 + train acc: 0.300 || test acc: 0.413
           > BEST: In epoch 88, train_loss: 0.694 + train_acc: 0.300 || test_acc: 0.587, loss:0.693
 --> time : 0.33 min ---  80220 80220 530498 372706
------------------------------------------------- 

------------------ 97 ---------------------------
In epoch 97, train loss: 0.694 + train acc: 0.250 || test acc: 0.587
           > BEST: In epoch 88, train_loss: 0.694 + train_acc: 0.300 || test_acc: 0.587, loss:0.693
 --> time : 0.33 min ---  80220 80220 530498 372706
------------------------------------------------- 

------------------ 98 ---------------------------
In epoch 98, train loss: 0.694 + train acc: 0.250 || test acc: 0.587
           > BEST: In epoch 88, train_loss: 0.694 + train_acc: 0.300 || test_acc: 0.587, loss:0.693
 --> time : 0.33 min ---  80220 80220 530498 372706
------------------------------------------------- 

------------------ 99 ---------------------------
In epoch 99, train loss: 0.694 + train acc: 0.150 || test acc: 0.587
           > BEST: In epoch 88, train_loss: 0.694 + train_acc: 0.300 || test_acc: 0.587, loss:0.693
 --> time : 0.33 min ---  80220 80220 530498 372706
------------------------------------------------- 

------------------ 100 ---------------------------
In epoch 100, train loss: 0.694 + train acc: 0.150 || test acc: 0.587
           > BEST: In epoch 88, train_loss: 0.694 + train_acc: 0.300 || test_acc: 0.587, loss:0.693
 --> time : 0.33 min ---  80220 80220 530498 372706
------------------------------------------------- 

------------------ 101 ---------------------------
In epoch 101, train loss: 0.694 + train acc: 0.150 || test acc: 0.587
           > BEST: In epoch 88, train_loss: 0.694 + train_acc: 0.300 || test_acc: 0.587, loss:0.693
 --> time : 0.33 min ---  80220 80220 530498 372706
------------------------------------------------- 

------------------ 102 ---------------------------
In epoch 102, train loss: 0.694 + train acc: 0.100 || test acc: 0.413
           > BEST: In epoch 88, train_loss: 0.694 + train_acc: 0.300 || test_acc: 0.587, loss:0.693
 --> time : 0.33 min ---  80220 80220 530498 372706
------------------------------------------------- 

------------------ 103 ---------------------------
In epoch 103, train loss: 0.694 + train acc: 0.200 || test acc: 0.413
           > BEST: In epoch 88, train_loss: 0.694 + train_acc: 0.300 || test_acc: 0.587, loss:0.693
 --> time : 0.33 min ---  80220 80220 530498 372706
------------------------------------------------- 

------------------ 104 ---------------------------
In epoch 104, train loss: 0.694 + train acc: 0.200 || test acc: 0.413
           > BEST: In epoch 88, train_loss: 0.694 + train_acc: 0.300 || test_acc: 0.587, loss:0.693
 --> time : 0.33 min ---  80220 80220 530498 372706
------------------------------------------------- 

------------------ 105 ---------------------------
In epoch 105, train loss: 0.694 + train acc: 0.200 || test acc: 0.587
           > BEST: In epoch 88, train_loss: 0.694 + train_acc: 0.300 || test_acc: 0.587, loss:0.693
 --> time : 0.33 min ---  80220 80220 530498 372706
------------------------------------------------- 

------------------ 106 ---------------------------
In epoch 106, train loss: 0.694 + train acc: 0.150 || test acc: 0.587
           > BEST: In epoch 88, train_loss: 0.694 + train_acc: 0.300 || test_acc: 0.587, loss:0.693
 --> time : 0.33 min ---  80220 80220 530498 372706
------------------------------------------------- 

------------------ 107 ---------------------------
In epoch 107, train loss: 0.694 + train acc: 0.150 || test acc: 0.587
           > BEST: In epoch 88, train_loss: 0.694 + train_acc: 0.300 || test_acc: 0.587, loss:0.693
 --> time : 0.33 min ---  80220 80220 530498 372706
------------------------------------------------- 

------------------ 108 ---------------------------
In epoch 108, train loss: 0.694 + train acc: 0.100 || test acc: 0.587
           > BEST: In epoch 88, train_loss: 0.694 + train_acc: 0.300 || test_acc: 0.587, loss:0.693
 --> time : 0.33 min ---  80220 80220 530498 372706
------------------------------------------------- 

------------------ 109 ---------------------------
In epoch 109, train loss: 0.694 + train acc: 0.150 || test acc: 0.413
           > BEST: In epoch 88, train_loss: 0.694 + train_acc: 0.300 || test_acc: 0.587, loss:0.693
 --> time : 0.33 min ---  80220 80220 530498 372706
------------------------------------------------- 

------------------ 110 ---------------------------
In epoch 110, train loss: 0.694 + train acc: 0.200 || test acc: 0.587
           > BEST: In epoch 88, train_loss: 0.694 + train_acc: 0.300 || test_acc: 0.587, loss:0.693
 --> time : 0.33 min ---  80220 80220 530498 372706
------------------------------------------------- 

------------------ 111 ---------------------------
In epoch 111, train loss: 0.694 + train acc: 0.150 || test acc: 0.587
           > BEST: In epoch 88, train_loss: 0.694 + train_acc: 0.300 || test_acc: 0.587, loss:0.693
 --> time : 0.32 min ---  80220 80220 530498 372706
------------------------------------------------- 

------------------ 112 ---------------------------
In epoch 112, train loss: 0.694 + train acc: 0.100 || test acc: 0.587
           > BEST: In epoch 88, train_loss: 0.694 + train_acc: 0.300 || test_acc: 0.587, loss:0.693
 --> time : 0.33 min ---  80220 80220 530498 372706
------------------------------------------------- 

------------------ 113 ---------------------------
In epoch 113, train loss: 0.694 + train acc: 0.100 || test acc: 0.587
           > BEST: In epoch 88, train_loss: 0.694 + train_acc: 0.300 || test_acc: 0.587, loss:0.693
 --> time : 0.33 min ---  80220 80220 530498 372706
------------------------------------------------- 

------------------ 114 ---------------------------
In epoch 114, train loss: 0.694 + train acc: 0.100 || test acc: 0.587
           > BEST: In epoch 88, train_loss: 0.694 + train_acc: 0.300 || test_acc: 0.587, loss:0.693
 --> time : 0.33 min ---  80220 80220 530498 372706
------------------------------------------------- 

------------------ 115 ---------------------------
In epoch 115, train loss: 0.694 + train acc: 0.150 || test acc: 0.587
           > BEST: In epoch 88, train_loss: 0.694 + train_acc: 0.300 || test_acc: 0.587, loss:0.693
 --> time : 0.33 min ---  80220 80220 530498 372706
------------------------------------------------- 

------------------ 116 ---------------------------
In epoch 116, train loss: 0.694 + train acc: 0.150 || test acc: 0.587
           > BEST: In epoch 88, train_loss: 0.694 + train_acc: 0.300 || test_acc: 0.587, loss:0.693
 --> time : 0.33 min ---  80220 80220 530498 372706
------------------------------------------------- 

------------------ 117 ---------------------------
In epoch 117, train loss: 0.694 + train acc: 0.150 || test acc: 0.413
           > BEST: In epoch 88, train_loss: 0.694 + train_acc: 0.300 || test_acc: 0.587, loss:0.693
 --> time : 0.33 min ---  80220 80220 530498 372706
------------------------------------------------- 

------------------ 118 ---------------------------
In epoch 118, train loss: 0.694 + train acc: 0.200 || test acc: 0.587
           > BEST: In epoch 88, train_loss: 0.694 + train_acc: 0.300 || test_acc: 0.587, loss:0.693
 --> time : 0.33 min ---  80220 80220 530498 372706
------------------------------------------------- 

------------------ 119 ---------------------------
In epoch 119, train loss: 0.694 + train acc: 0.150 || test acc: 0.587
           > BEST: In epoch 88, train_loss: 0.694 + train_acc: 0.300 || test_acc: 0.587, loss:0.693
 --> time : 0.33 min ---  80220 80220 530498 372706
------------------------------------------------- 

------------------ 120 ---------------------------
In epoch 120, train loss: 0.694 + train acc: 0.150 || test acc: 0.587
           > BEST: In epoch 88, train_loss: 0.694 + train_acc: 0.300 || test_acc: 0.587, loss:0.693
 --> time : 0.33 min ---  80220 80220 530498 372706
------------------------------------------------- 

------------------ 121 ---------------------------
In epoch 121, train loss: 0.694 + train acc: 0.150 || test acc: 0.413
           > BEST: In epoch 88, train_loss: 0.694 + train_acc: 0.300 || test_acc: 0.587, loss:0.693
 --> time : 0.33 min ---  80220 80220 530498 372706
------------------------------------------------- 

------------------ 122 ---------------------------
In epoch 122, train loss: 0.694 + train acc: 0.200 || test acc: 0.413
           > BEST: In epoch 88, train_loss: 0.694 + train_acc: 0.300 || test_acc: 0.587, loss:0.693
 --> time : 0.33 min ---  80220 80220 530498 372706
------------------------------------------------- 

------------------ 123 ---------------------------
In epoch 123, train loss: 0.694 + train acc: 0.200 || test acc: 0.587
           > BEST: In epoch 88, train_loss: 0.694 + train_acc: 0.300 || test_acc: 0.587, loss:0.693
 --> time : 0.33 min ---  80220 80220 530498 372706
------------------------------------------------- 

------------------ 124 ---------------------------
In epoch 124, train loss: 0.694 + train acc: 0.150 || test acc: 0.587
           > BEST: In epoch 88, train_loss: 0.694 + train_acc: 0.300 || test_acc: 0.587, loss:0.693
 --> time : 0.33 min ---  80220 80220 530498 372706
------------------------------------------------- 

------------------ 125 ---------------------------
In epoch 125, train loss: 0.694 + train acc: 0.100 || test acc: 0.587
           > BEST: In epoch 88, train_loss: 0.694 + train_acc: 0.300 || test_acc: 0.587, loss:0.693
 --> time : 0.33 min ---  80220 80220 530498 372706
------------------------------------------------- 

------------------ 126 ---------------------------
In epoch 126, train loss: 0.694 + train acc: 0.150 || test acc: 0.587
           > BEST: In epoch 88, train_loss: 0.694 + train_acc: 0.300 || test_acc: 0.587, loss:0.693
 --> time : 0.33 min ---  80220 80220 530498 372706
------------------------------------------------- 

------------------ 127 ---------------------------
In epoch 127, train loss: 0.694 + train acc: 0.150 || test acc: 0.587
           > BEST: In epoch 88, train_loss: 0.694 + train_acc: 0.300 || test_acc: 0.587, loss:0.693
 --> time : 0.33 min ---  80220 80220 530498 372706
------------------------------------------------- 

------------------ 128 ---------------------------
In epoch 128, train loss: 0.694 + train acc: 0.100 || test acc: 0.587
           > BEST: In epoch 88, train_loss: 0.694 + train_acc: 0.300 || test_acc: 0.587, loss:0.693
 --> time : 0.33 min ---  80220 80220 530498 372706
------------------------------------------------- 

------------------ 129 ---------------------------
In epoch 129, train loss: 0.694 + train acc: 0.150 || test acc: 0.587
           > BEST: In epoch 88, train_loss: 0.694 + train_acc: 0.300 || test_acc: 0.587, loss:0.693
 --> time : 0.33 min ---  80220 80220 530498 372706
------------------------------------------------- 

------------------ 130 ---------------------------
In epoch 130, train loss: 0.694 + train acc: 0.150 || test acc: 0.587
           > BEST: In epoch 88, train_loss: 0.694 + train_acc: 0.300 || test_acc: 0.587, loss:0.693
 --> time : 0.33 min ---  80220 80220 530498 372706
------------------------------------------------- 

------------------ 131 ---------------------------
In epoch 131, train loss: 0.694 + train acc: 0.100 || test acc: 0.587
           > BEST: In epoch 88, train_loss: 0.694 + train_acc: 0.300 || test_acc: 0.587, loss:0.693
 --> time : 0.33 min ---  80220 80220 530498 372706
------------------------------------------------- 

------------------ 132 ---------------------------
In epoch 132, train loss: 0.694 + train acc: 0.200 || test acc: 0.587
           > BEST: In epoch 88, train_loss: 0.694 + train_acc: 0.300 || test_acc: 0.587, loss:0.693
 --> time : 0.33 min ---  80220 80220 530498 372706
------------------------------------------------- 

------------------ 133 ---------------------------
In epoch 133, train loss: 0.694 + train acc: 0.150 || test acc: 0.587
           > BEST: In epoch 88, train_loss: 0.694 + train_acc: 0.300 || test_acc: 0.587, loss:0.693
 --> time : 0.33 min ---  80220 80220 530498 372706
------------------------------------------------- 

------------------ 134 ---------------------------
In epoch 134, train loss: 0.694 + train acc: 0.100 || test acc: 0.587
           > BEST: In epoch 88, train_loss: 0.694 + train_acc: 0.300 || test_acc: 0.587, loss:0.693
 --> time : 0.33 min ---  80220 80220 530498 372706
------------------------------------------------- 

------------------ 135 ---------------------------
In epoch 135, train loss: 0.694 + train acc: 0.100 || test acc: 0.587
           > BEST: In epoch 88, train_loss: 0.694 + train_acc: 0.300 || test_acc: 0.587, loss:0.693
 --> time : 0.33 min ---  80220 80220 530498 372706
------------------------------------------------- 

------------------ 136 ---------------------------
In epoch 136, train loss: 0.694 + train acc: 0.150 || test acc: 0.587
           > BEST: In epoch 88, train_loss: 0.694 + train_acc: 0.300 || test_acc: 0.587, loss:0.693
 --> time : 0.33 min ---  80220 80220 530498 372706
------------------------------------------------- 

------------------ 137 ---------------------------
In epoch 137, train loss: 0.694 + train acc: 0.150 || test acc: 0.587
           > BEST: In epoch 88, train_loss: 0.694 + train_acc: 0.300 || test_acc: 0.587, loss:0.693
 --> time : 0.33 min ---  80220 80220 530498 372706
------------------------------------------------- 

------------------ 138 ---------------------------
In epoch 138, train loss: 0.694 + train acc: 0.100 || test acc: 0.587
           > BEST: In epoch 88, train_loss: 0.694 + train_acc: 0.300 || test_acc: 0.587, loss:0.693
 --> time : 0.33 min ---  80220 80220 530498 372706
------------------------------------------------- 

------------------ 139 ---------------------------
In epoch 139, train loss: 0.694 + train acc: 0.100 || test acc: 0.587
           > BEST: In epoch 88, train_loss: 0.694 + train_acc: 0.300 || test_acc: 0.587, loss:0.693
 --> time : 0.33 min ---  80220 80220 530498 372706
------------------------------------------------- 

------------------ 140 ---------------------------
In epoch 140, train loss: 0.694 + train acc: 0.150 || test acc: 0.587
           > BEST: In epoch 88, train_loss: 0.694 + train_acc: 0.300 || test_acc: 0.587, loss:0.693
 --> time : 0.33 min ---  80220 80220 530498 372706
------------------------------------------------- 

------------------ 141 ---------------------------
In epoch 141, train loss: 0.694 + train acc: 0.100 || test acc: 0.587
           > BEST: In epoch 88, train_loss: 0.694 + train_acc: 0.300 || test_acc: 0.587, loss:0.693
 --> time : 0.33 min ---  80220 80220 530498 372706
------------------------------------------------- 

------------------ 142 ---------------------------
In epoch 142, train loss: 0.694 + train acc: 0.150 || test acc: 0.587
           > BEST: In epoch 88, train_loss: 0.694 + train_acc: 0.300 || test_acc: 0.587, loss:0.693
 --> time : 0.33 min ---  80220 80220 530498 372706
------------------------------------------------- 

------------------ 143 ---------------------------
In epoch 143, train loss: 0.694 + train acc: 0.150 || test acc: 0.587
           > BEST: In epoch 88, train_loss: 0.694 + train_acc: 0.300 || test_acc: 0.587, loss:0.693
 --> time : 0.33 min ---  80220 80220 530498 372706
------------------------------------------------- 

------------------ 144 ---------------------------
In epoch 144, train loss: 0.694 + train acc: 0.150 || test acc: 0.587
           > BEST: In epoch 88, train_loss: 0.694 + train_acc: 0.300 || test_acc: 0.587, loss:0.693
 --> time : 0.33 min ---  80220 80220 530498 372706
------------------------------------------------- 

------------------ 145 ---------------------------
In epoch 145, train loss: 0.694 + train acc: 0.150 || test acc: 0.587
           > BEST: In epoch 88, train_loss: 0.694 + train_acc: 0.300 || test_acc: 0.587, loss:0.693
 --> time : 0.33 min ---  80220 80220 530498 372706
------------------------------------------------- 

------------------ 146 ---------------------------
In epoch 146, train loss: 0.694 + train acc: 0.100 || test acc: 0.587
           > BEST: In epoch 88, train_loss: 0.694 + train_acc: 0.300 || test_acc: 0.587, loss:0.693
 --> time : 0.33 min ---  80220 80220 530498 372706
------------------------------------------------- 

------------------ 147 ---------------------------
In epoch 147, train loss: 0.694 + train acc: 0.100 || test acc: 0.587
           > BEST: In epoch 88, train_loss: 0.694 + train_acc: 0.300 || test_acc: 0.587, loss:0.693
 --> time : 0.33 min ---  80220 80220 530498 372706
------------------------------------------------- 

------------------ 148 ---------------------------
In epoch 148, train loss: 0.694 + train acc: 0.200 || test acc: 0.587
           > BEST: In epoch 88, train_loss: 0.694 + train_acc: 0.300 || test_acc: 0.587, loss:0.693
 --> time : 0.33 min ---  80220 80220 530498 372706
------------------------------------------------- 

------------------ 149 ---------------------------
In epoch 149, train loss: 0.694 + train acc: 0.100 || test acc: 0.587
           > BEST: In epoch 88, train_loss: 0.694 + train_acc: 0.300 || test_acc: 0.587, loss:0.693
 --> time : 0.33 min ---  80220 80220 530498 372706
------------------------------------------------- 

------------------ 150 ---------------------------
In epoch 150, train loss: 0.694 + train acc: 0.100 || test acc: 0.587
           > BEST: In epoch 88, train_loss: 0.694 + train_acc: 0.300 || test_acc: 0.587, loss:0.693
 --> time : 0.33 min ---  80220 80220 530498 372706
------------------------------------------------- 

------------------ 151 ---------------------------
In epoch 151, train loss: 0.694 + train acc: 0.100 || test acc: 0.587
           > BEST: In epoch 88, train_loss: 0.694 + train_acc: 0.300 || test_acc: 0.587, loss:0.693
 --> time : 0.33 min ---  80220 80220 530498 372706
------------------------------------------------- 

------------------ 152 ---------------------------
In epoch 152, train loss: 0.694 + train acc: 0.100 || test acc: 0.587
           > BEST: In epoch 88, train_loss: 0.694 + train_acc: 0.300 || test_acc: 0.587, loss:0.693
 --> time : 0.33 min ---  80220 80220 530498 372706
------------------------------------------------- 

------------------ 153 ---------------------------
In epoch 153, train loss: 0.694 + train acc: 0.100 || test acc: 0.587
           > BEST: In epoch 88, train_loss: 0.694 + train_acc: 0.300 || test_acc: 0.587, loss:0.693
 --> time : 0.33 min ---  80220 80220 530498 372706
------------------------------------------------- 

------------------ 154 ---------------------------
In epoch 154, train loss: 0.694 + train acc: 0.100 || test acc: 0.587
           > BEST: In epoch 88, train_loss: 0.694 + train_acc: 0.300 || test_acc: 0.587, loss:0.693
 --> time : 0.33 min ---  80220 80220 530498 372706
------------------------------------------------- 

------------------ 155 ---------------------------
In epoch 155, train loss: 0.694 + train acc: 0.150 || test acc: 0.587
           > BEST: In epoch 88, train_loss: 0.694 + train_acc: 0.300 || test_acc: 0.587, loss:0.693
 --> time : 0.33 min ---  80220 80220 530498 372706
------------------------------------------------- 

------------------ 156 ---------------------------
In epoch 156, train loss: 0.694 + train acc: 0.150 || test acc: 0.587
           > BEST: In epoch 88, train_loss: 0.694 + train_acc: 0.300 || test_acc: 0.587, loss:0.693
 --> time : 0.33 min ---  80220 80220 530498 372706
------------------------------------------------- 

------------------ 157 ---------------------------
In epoch 157, train loss: 0.694 + train acc: 0.150 || test acc: 0.587
           > BEST: In epoch 88, train_loss: 0.694 + train_acc: 0.300 || test_acc: 0.587, loss:0.693
 --> time : 0.33 min ---  80220 80220 530498 372706
------------------------------------------------- 

------------------ 158 ---------------------------
In epoch 158, train loss: 0.694 + train acc: 0.050 || test acc: 0.587
           > BEST: In epoch 88, train_loss: 0.694 + train_acc: 0.300 || test_acc: 0.587, loss:0.693
 --> time : 0.32 min ---  80220 80220 530498 372706
------------------------------------------------- 

------------------ 159 ---------------------------
In epoch 159, train loss: 0.694 + train acc: 0.100 || test acc: 0.587
           > BEST: In epoch 88, train_loss: 0.694 + train_acc: 0.300 || test_acc: 0.587, loss:0.693
 --> time : 0.33 min ---  80220 80220 530498 372706
------------------------------------------------- 

------------------ 160 ---------------------------
In epoch 160, train loss: 0.694 + train acc: 0.150 || test acc: 0.587
           > BEST: In epoch 88, train_loss: 0.694 + train_acc: 0.300 || test_acc: 0.587, loss:0.693
 --> time : 0.33 min ---  80220 80220 530498 372706
------------------------------------------------- 

------------------ 161 ---------------------------
In epoch 161, train loss: 0.694 + train acc: 0.100 || test acc: 0.587
           > BEST: In epoch 88, train_loss: 0.694 + train_acc: 0.300 || test_acc: 0.587, loss:0.693
 --> time : 0.33 min ---  80220 80220 530498 372706
------------------------------------------------- 

------------------ 162 ---------------------------
In epoch 162, train loss: 0.694 + train acc: 0.100 || test acc: 0.587
           > BEST: In epoch 88, train_loss: 0.694 + train_acc: 0.300 || test_acc: 0.587, loss:0.693
 --> time : 0.33 min ---  80220 80220 530498 372706
------------------------------------------------- 

------------------ 163 ---------------------------
In epoch 163, train loss: 0.694 + train acc: 0.150 || test acc: 0.587
           > BEST: In epoch 88, train_loss: 0.694 + train_acc: 0.300 || test_acc: 0.587, loss:0.693
 --> time : 0.33 min ---  80220 80220 530498 372706
------------------------------------------------- 

------------------ 164 ---------------------------
In epoch 164, train loss: 0.694 + train acc: 0.100 || test acc: 0.587
           > BEST: In epoch 88, train_loss: 0.694 + train_acc: 0.300 || test_acc: 0.587, loss:0.693
 --> time : 0.33 min ---  80220 80220 530498 372706
------------------------------------------------- 

------------------ 165 ---------------------------
In epoch 165, train loss: 0.694 + train acc: 0.100 || test acc: 0.587
           > BEST: In epoch 88, train_loss: 0.694 + train_acc: 0.300 || test_acc: 0.587, loss:0.693
 --> time : 0.33 min ---  80220 80220 530498 372706
------------------------------------------------- 

------------------ 166 ---------------------------
In epoch 166, train loss: 0.694 + train acc: 0.100 || test acc: 0.587
           > BEST: In epoch 88, train_loss: 0.694 + train_acc: 0.300 || test_acc: 0.587, loss:0.693
 --> time : 0.33 min ---  80220 80220 530498 372706
------------------------------------------------- 

------------------ 167 ---------------------------
In epoch 167, train loss: 0.694 + train acc: 0.150 || test acc: 0.587
           > BEST: In epoch 88, train_loss: 0.694 + train_acc: 0.300 || test_acc: 0.587, loss:0.693
 --> time : 0.33 min ---  80220 80220 530498 372706
------------------------------------------------- 

------------------ 168 ---------------------------
In epoch 168, train loss: 0.694 + train acc: 0.200 || test acc: 0.587
           > BEST: In epoch 88, train_loss: 0.694 + train_acc: 0.300 || test_acc: 0.587, loss:0.693
 --> time : 0.33 min ---  80220 80220 530498 372706
------------------------------------------------- 

------------------ 169 ---------------------------
In epoch 169, train loss: 0.694 + train acc: 0.150 || test acc: 0.587
           > BEST: In epoch 88, train_loss: 0.694 + train_acc: 0.300 || test_acc: 0.587, loss:0.693
 --> time : 0.33 min ---  80220 80220 530498 372706
------------------------------------------------- 

------------------ 170 ---------------------------
In epoch 170, train loss: 0.694 + train acc: 0.150 || test acc: 0.587
           > BEST: In epoch 88, train_loss: 0.694 + train_acc: 0.300 || test_acc: 0.587, loss:0.693
 --> time : 0.33 min ---  80220 80220 530498 372706
------------------------------------------------- 

------------------ 171 ---------------------------
In epoch 171, train loss: 0.694 + train acc: 0.150 || test acc: 0.587
           > BEST: In epoch 88, train_loss: 0.694 + train_acc: 0.300 || test_acc: 0.587, loss:0.693
 --> time : 0.33 min ---  80220 80220 530498 372706
------------------------------------------------- 

------------------ 172 ---------------------------
In epoch 172, train loss: 0.694 + train acc: 0.150 || test acc: 0.587
           > BEST: In epoch 88, train_loss: 0.694 + train_acc: 0.300 || test_acc: 0.587, loss:0.693
 --> time : 0.33 min ---  80220 80220 530498 372706
------------------------------------------------- 

------------------ 173 ---------------------------
In epoch 173, train loss: 0.694 + train acc: 0.100 || test acc: 0.587
           > BEST: In epoch 88, train_loss: 0.694 + train_acc: 0.300 || test_acc: 0.587, loss:0.693
 --> time : 0.33 min ---  80220 80220 530498 372706
------------------------------------------------- 

------------------ 174 ---------------------------
In epoch 174, train loss: 0.694 + train acc: 0.050 || test acc: 0.587
           > BEST: In epoch 88, train_loss: 0.694 + train_acc: 0.300 || test_acc: 0.587, loss:0.693
 --> time : 0.33 min ---  80220 80220 530498 372706
------------------------------------------------- 

------------------ 175 ---------------------------
In epoch 175, train loss: 0.694 + train acc: 0.150 || test acc: 0.587
           > BEST: In epoch 88, train_loss: 0.694 + train_acc: 0.300 || test_acc: 0.587, loss:0.693
 --> time : 0.33 min ---  80220 80220 530498 372706
------------------------------------------------- 

------------------ 176 ---------------------------
In epoch 176, train loss: 0.694 + train acc: 0.150 || test acc: 0.587
           > BEST: In epoch 88, train_loss: 0.694 + train_acc: 0.300 || test_acc: 0.587, loss:0.693
 --> time : 0.33 min ---  80220 80220 530498 372706
------------------------------------------------- 

------------------ 177 ---------------------------
In epoch 177, train loss: 0.694 + train acc: 0.150 || test acc: 0.587
           > BEST: In epoch 88, train_loss: 0.694 + train_acc: 0.300 || test_acc: 0.587, loss:0.693
 --> time : 0.33 min ---  80220 80220 530498 372706
------------------------------------------------- 

------------------ 178 ---------------------------
In epoch 178, train loss: 0.694 + train acc: 0.100 || test acc: 0.587
           > BEST: In epoch 88, train_loss: 0.694 + train_acc: 0.300 || test_acc: 0.587, loss:0.693
 --> time : 0.33 min ---  80220 80220 530498 372706
------------------------------------------------- 

------------------ 179 ---------------------------
In epoch 179, train loss: 0.694 + train acc: 0.200 || test acc: 0.587
           > BEST: In epoch 88, train_loss: 0.694 + train_acc: 0.300 || test_acc: 0.587, loss:0.693
 --> time : 0.33 min ---  80220 80220 530498 372706
------------------------------------------------- 

------------------ 180 ---------------------------
In epoch 180, train loss: 0.694 + train acc: 0.100 || test acc: 0.587
           > BEST: In epoch 88, train_loss: 0.694 + train_acc: 0.300 || test_acc: 0.587, loss:0.693
 --> time : 0.33 min ---  80220 80220 530498 372706
------------------------------------------------- 

------------------ 181 ---------------------------
In epoch 181, train loss: 0.694 + train acc: 0.150 || test acc: 0.587
           > BEST: In epoch 88, train_loss: 0.694 + train_acc: 0.300 || test_acc: 0.587, loss:0.693
 --> time : 0.33 min ---  80220 80220 530498 372706
------------------------------------------------- 

------------------ 182 ---------------------------
In epoch 182, train loss: 0.694 + train acc: 0.150 || test acc: 0.587
           > BEST: In epoch 88, train_loss: 0.694 + train_acc: 0.300 || test_acc: 0.587, loss:0.693
 --> time : 0.33 min ---  80220 80220 530498 372706
------------------------------------------------- 

------------------ 183 ---------------------------
In epoch 183, train loss: 0.694 + train acc: 0.150 || test acc: 0.587
           > BEST: In epoch 88, train_loss: 0.694 + train_acc: 0.300 || test_acc: 0.587, loss:0.693
 --> time : 0.33 min ---  80220 80220 530498 372706
------------------------------------------------- 

------------------ 184 ---------------------------
In epoch 184, train loss: 0.694 + train acc: 0.100 || test acc: 0.587
           > BEST: In epoch 88, train_loss: 0.694 + train_acc: 0.300 || test_acc: 0.587, loss:0.693
 --> time : 0.33 min ---  80220 80220 530498 372706
------------------------------------------------- 

------------------ 185 ---------------------------
In epoch 185, train loss: 0.694 + train acc: 0.050 || test acc: 0.587
           > BEST: In epoch 88, train_loss: 0.694 + train_acc: 0.300 || test_acc: 0.587, loss:0.693
 --> time : 0.33 min ---  80220 80220 530498 372706
------------------------------------------------- 

------------------ 186 ---------------------------
In epoch 186, train loss: 0.694 + train acc: 0.150 || test acc: 0.587
           > BEST: In epoch 88, train_loss: 0.694 + train_acc: 0.300 || test_acc: 0.587, loss:0.693
 --> time : 0.33 min ---  80220 80220 530498 372706
------------------------------------------------- 

------------------ 187 ---------------------------
In epoch 187, train loss: 0.694 + train acc: 0.100 || test acc: 0.587
           > BEST: In epoch 88, train_loss: 0.694 + train_acc: 0.300 || test_acc: 0.587, loss:0.693
 --> time : 0.33 min ---  80220 80220 530498 372706
------------------------------------------------- 

------------------ 188 ---------------------------
In epoch 188, train loss: 0.694 + train acc: 0.150 || test acc: 0.587
           > BEST: In epoch 88, train_loss: 0.694 + train_acc: 0.300 || test_acc: 0.587, loss:0.693
 --> time : 0.33 min ---  80220 80220 530498 372706
------------------------------------------------- 

------------------ 189 ---------------------------
 > hop we stop, new_train_loss= 0.69376 best train loss= 0.69353 ==> cpt_early= 100

 --- Save final model ---
    -> Training info: {'train_runtime': 32.9351, 'train_loss': 0.69353, 'test_acc': 0.5873512517659355, 'test_loss': 0.6931187510490417}
 --- 2.  62.16 min ---
 ********* TIME STEP 2 - TRAINING MODEL -->  1.04 hours *********




############################# STEP 3 - GET QC & LOSS SCORE ############################# 


 ### 1. Get TEST prediction, and QC score !
 > nbs_topics: 10
|||||||||||||||||||||||||| TEST  PREDICTIONS ||||||||||||||||||||||||||
####### k= -1
 --- get subgraphs ---
 > test subgraphs already exist !
   --- topic= Thanksgiving
------------------------------------------- END SHELL GNN_QC -----------------------------------------
