------------------------------------------- START SHELL GNN_QC -----------------------------------------
[2023-10-11 14:51:56,677] [INFO] [real_accelerator.py:133:get_accelerator] Setting ds_accelerator to cuda (auto detect)
    >>>>>>>>>>>>>>>>>>>>>>>>     Welcome to USR_QC --TEXT-- training from SB  <<<<<<<<<<<<<<<<<<<<<<<<< 

****************** data_from_zarate PARAMETERS *******************
CODE_XP :  TEXT
general_topic :  ZARATE
to_connex :  False
is_undirected :  True
minimum_links :  1
epochs :  15
   + are edges weight : True
text_model :  basic
   + text_aggregator :  MAX
   + batch_bert :  64
   + learning_rate_bert :  2e-05
device : ['0']
****************   *   ****   *   ******************


############################# STEP 1 - DATA PROCESSING OF ALL TOPICS ############################# 

*======================================================================================*
-------- graph 1 / 30 : pelosi 1 : pelosi * -------- 

*======================================================================================*
<data object already loaded>
 --- 0.  0.32 min ---

 ### 8. get tweets for every user (even w/ no tweets)
/gpfsscratch/rech/kdj/unn89uy/GNN_QC/data/data_ZARATE/data_ZARATE_translated_v3/pelosi.csv
Total lines (file):  252000
Total lines (df):  252000 vs cpt= 252000
 --- 8.  0.21 min ---


 ### 8. Save ALL in dataset
 **** TOTAL time for topic :  0.01 hours ****



*======================================================================================*
-------- graph 2 / 30 : impeachment-5-10 1 : impeachment-5-10 * -------- 

*======================================================================================*
/gpfsscratch/rech/kdj/unn89uy/GNN_QC/data/data_objects/USR_QC_connex//ZARATE/RETWEET/temp_topic_objects/impeachment-5-10/data_object.pickle : <not found>

 ### 1. get user graph information
/gpfsscratch/rech/kdj/unn89uy/GNN_QC/data/data_ZARATE/data_ZARATE_translated_v3/impeachment-5-10.csv
Total lines (file):  123697
Number of user should be:  37238
Total lines (df):  123697 vs cpt= 123697
Total lines (RT):  62952
      **** test len before:  20878
      **** test len after:  20878
>> Number of user:  20878 ( 14483 only retweet )
          -> user not_present_in_graph:  0
          -> cpt (user not present in the graph also): 16360
no sort edges
 > normal count by edge (1)
>> number of duplicate edges :  11548
!!! NO !!! NOT REMOVING NODES WITH NO LINKS
 >>> pb None nodes:  0 / 51404
    > number of components: 1162
/!\ WE EVEN TAKE NON-CONNEX COMPONENT /!\ 
<save data>

      <<<< FINAL GRAPH PULLED :  20878  Users - 51404  Edges >>>> 

--- 1.  2.68 min ---

 ### 2. get new node id and edge corresponding >>>
--- 2.  0.0 min ---

 ### 3. get node features
  > features = node degree
  > features = text inputs
 < get tokenizer:  basic >
read tokenizer>>
 < get tokenizer:  basic >
read tokenizer>>
%%% Test dict_node_features :  20878 20878 20878
 --- 3.  0.21 min ---

 ### 4. get node label communities
  #4.a. METIS LABEL
%%% Test dict_node_label_metis :  0
  #4.b. LOUVAIN LABEL
%%% Test dict_node_label_louvain :  0
 --- 4.  0.0 min ---

 ### 5. get node label from unsupervised learning [PAUSE]
 --- 5.  0.0 min ---

 ### 6. create giphi files label

 ### 7. Save pickle files
 --- 7.  0.05 min ---

 ### 8. get tweets for every user (even w/ no tweets)
/gpfsscratch/rech/kdj/unn89uy/GNN_QC/data/data_ZARATE/data_ZARATE_translated_v3/impeachment-5-10.csv
Total lines (file):  123697
Total lines (df):  123697 vs cpt= 123697
 --- 8.  0.1 min ---


 ### 8. Save ALL in dataset
 **** TOTAL time for topic :  0.05 hours ****



*======================================================================================*
-------- graph 3 / 30 : menciones-1-10enero 1 : menciones-1-10enero * -------- 

*======================================================================================*
/gpfsscratch/rech/kdj/unn89uy/GNN_QC/data/data_objects/USR_QC_connex//ZARATE/RETWEET/temp_topic_objects/menciones-1-10enero/data_object.pickle : <not found>

 ### 1. get user graph information
/gpfsscratch/rech/kdj/unn89uy/GNN_QC/data/data_ZARATE/data_ZARATE_translated_v3/menciones-1-10enero.csv
Total lines (file):  81209
Number of user should be:  32654
Total lines (df):  81209 vs cpt= 81209
Total lines (RT):  56091
      **** test len before:  25491
      **** test len after:  25491
>> Number of user:  25491 ( 19316 only retweet )
          -> user not_present_in_graph:  0
          -> cpt (user not present in the graph also): 7163
no sort edges
 > normal count by edge (1)
>> number of duplicate edges :  6660
!!! NO !!! NOT REMOVING NODES WITH NO LINKS
 >>> pb None nodes:  0 / 49001
    > number of components: 397
/!\ WE EVEN TAKE NON-CONNEX COMPONENT /!\ 
<save data>

      <<<< FINAL GRAPH PULLED :  25491  Users - 49001  Edges >>>> 

--- 1.  2.39 min ---

 ### 2. get new node id and edge corresponding >>>
--- 2.  0.0 min ---

 ### 3. get node features
  > features = node degree
  > features = text inputs
 < get tokenizer:  basic >
read tokenizer>>
 < get tokenizer:  basic >
read tokenizer>>
%%% Test dict_node_features :  25491 25491 25441
 --- 3.  0.09 min ---

 ### 4. get node label communities
  #4.a. METIS LABEL
%%% Test dict_node_label_metis :  0
  #4.b. LOUVAIN LABEL
%%% Test dict_node_label_louvain :  0
 --- 4.  0.0 min ---

 ### 5. get node label from unsupervised learning [PAUSE]
 --- 5.  0.0 min ---

 ### 6. create giphi files label

 ### 7. Save pickle files
 --- 7.  0.07 min ---

 ### 8. get tweets for every user (even w/ no tweets)
/gpfsscratch/rech/kdj/unn89uy/GNN_QC/data/data_ZARATE/data_ZARATE_translated_v3/menciones-1-10enero.csv
Total lines (file):  81209
Total lines (df):  81209 vs cpt= 81209
 --- 8.  0.07 min ---


 ### 8. Save ALL in dataset
 **** TOTAL time for topic :  0.04 hours ****



*======================================================================================*
-------- graph 4 / 30 : menciones-20-27marzo 1 : menciones-20-27marzo * -------- 

*======================================================================================*
/gpfsscratch/rech/kdj/unn89uy/GNN_QC/data/data_objects/USR_QC_connex//ZARATE/RETWEET/temp_topic_objects/menciones-20-27marzo/data_object.pickle : <not found>

 ### 1. get user graph information
/gpfsscratch/rech/kdj/unn89uy/GNN_QC/data/data_ZARATE/data_ZARATE_translated_v3/menciones-20-27marzo.csv
Total lines (file):  97950
Number of user should be:  41629
Total lines (df):  97950 vs cpt= 97950
Total lines (RT):  77018
      **** test len before:  34853
      **** test len after:  34853
>> Number of user:  34853 ( 28110 only retweet )
          -> user not_present_in_graph:  0
          -> cpt (user not present in the graph also): 6776
no sort edges
 > normal count by edge (1)
>> number of duplicate edges :  7499
!!! NO !!! NOT REMOVING NODES WITH NO LINKS
 >>> pb None nodes:  0 / 68955
    > number of components: 751
/!\ WE EVEN TAKE NON-CONNEX COMPONENT /!\ 
<save data>

      <<<< FINAL GRAPH PULLED :  34853  Users - 68955  Edges >>>> 

--- 1.  4.36 min ---

 ### 2. get new node id and edge corresponding >>>
--- 2.  0.0 min ---

 ### 3. get node features
  > features = node degree
  > features = text inputs
 < get tokenizer:  basic >
read tokenizer>>
 < get tokenizer:  basic >
read tokenizer>>
%%% Test dict_node_features :  34853 34853 34795
 --- 3.  0.09 min ---

 ### 4. get node label communities
  #4.a. METIS LABEL
%%% Test dict_node_label_metis :  0
  #4.b. LOUVAIN LABEL
%%% Test dict_node_label_louvain :  0
 --- 4.  0.0 min ---

 ### 5. get node label from unsupervised learning [PAUSE]
 --- 5.  0.0 min ---

 ### 6. create giphi files label

 ### 7. Save pickle files
 --- 7.  0.1 min ---

 ### 8. get tweets for every user (even w/ no tweets)
/gpfsscratch/rech/kdj/unn89uy/GNN_QC/data/data_ZARATE/data_ZARATE_translated_v3/menciones-20-27marzo.csv
Total lines (file):  97950
Total lines (df):  97950 vs cpt= 97950
 --- 8.  0.08 min ---


 ### 8. Save ALL in dataset
 **** TOTAL time for topic :  0.08 hours ****



*======================================================================================*
-------- graph 5 / 30 : area51 0 : area51 * -------- 

*======================================================================================*
/gpfsscratch/rech/kdj/unn89uy/GNN_QC/data/data_objects/USR_QC_connex//ZARATE/RETWEET/temp_topic_objects/area51/data_object.pickle : <not found>

 ### 1. get user graph information
/gpfsscratch/rech/kdj/unn89uy/GNN_QC/data/data_ZARATE/data_ZARATE_translated_v3/area51.csv
Total lines (file):  178220
Number of user should be:  118709
Total lines (df):  178220 vs cpt= 178220
Total lines (RT):  158044
      **** test len before:  107349
      **** test len after:  107349
>> Number of user:  107349 ( 101694 only retweet )
          -> user not_present_in_graph:  0
          -> cpt (user not present in the graph also): 11360
no sort edges
 > normal count by edge (1)
>> number of duplicate edges :  1294
!!! NO !!! NOT REMOVING NODES WITH NO LINKS
 >>> pb None nodes:  0 / 156416
    > number of components: 1709
/!\ WE EVEN TAKE NON-CONNEX COMPONENT /!\ 
<save data>

      <<<< FINAL GRAPH PULLED :  107349  Users - 156416  Edges >>>> 

--- 1.  23.45 min ---

 ### 2. get new node id and edge corresponding >>>
--- 2.  0.0 min ---

 ### 3. get node features
  > features = node degree
  > features = text inputs
 < get tokenizer:  basic >
read tokenizer>>
 < get tokenizer:  basic >
read tokenizer>>
%%% Test dict_node_features :  107349 107349 107252
 --- 3.  0.12 min ---

 ### 4. get node label communities
  #4.a. METIS LABEL
%%% Test dict_node_label_metis :  0
  #4.b. LOUVAIN LABEL
%%% Test dict_node_label_louvain :  0
 --- 4.  0.0 min ---

 ### 5. get node label from unsupervised learning [PAUSE]
 --- 5.  0.0 min ---

 ### 6. create giphi files label

 ### 7. Save pickle files
 --- 7.  0.29 min ---

 ### 8. get tweets for every user (even w/ no tweets)
/gpfsscratch/rech/kdj/unn89uy/GNN_QC/data/data_ZARATE/data_ZARATE_translated_v3/area51.csv
Total lines (file):  178220
Total lines (df):  178220 vs cpt= 178220
 --- 8.  0.14 min ---


 ### 8. Save ALL in dataset
 **** TOTAL time for topic :  0.4 hours ****



*======================================================================================*
-------- graph 6 / 30 : OTDirecto20E 0 : OTDirecto20E * -------- 

*======================================================================================*
/gpfsscratch/rech/kdj/unn89uy/GNN_QC/data/data_objects/USR_QC_connex//ZARATE/RETWEET/temp_topic_objects/OTDirecto20E/data_object.pickle : <not found>

 ### 1. get user graph information
/gpfsscratch/rech/kdj/unn89uy/GNN_QC/data/data_ZARATE/data_ZARATE_translated_v3/OTDirecto20E.csv
Total lines (file):  148061
Number of user should be:  26948
Total lines (df):  148061 vs cpt= 148061
Total lines (RT):  104891
      **** test len before:  24587
      **** test len after:  24587
>> Number of user:  24587 ( 16884 only retweet )
          -> user not_present_in_graph:  0
          -> cpt (user not present in the graph also): 2361
no sort edges
 > normal count by edge (1)
>> number of duplicate edges :  9385
!!! NO !!! NOT REMOVING NODES WITH NO LINKS
 >>> pb None nodes:  0 / 95267
    > number of components: 122
/!\ WE EVEN TAKE NON-CONNEX COMPONENT /!\ 
<save data>

      <<<< FINAL GRAPH PULLED :  24587  Users - 95267  Edges >>>> 

--- 1.  7.21 min ---

 ### 2. get new node id and edge corresponding >>>
--- 2.  0.0 min ---

 ### 3. get node features
  > features = node degree
  > features = text inputs
 < get tokenizer:  basic >
read tokenizer>>
 < get tokenizer:  basic >
read tokenizer>>
%%% Test dict_node_features :  24587 24587 24577
 --- 3.  0.15 min ---

 ### 4. get node label communities
  #4.a. METIS LABEL
%%% Test dict_node_label_metis :  0
  #4.b. LOUVAIN LABEL
%%% Test dict_node_label_louvain :  0
 --- 4.  0.0 min ---

 ### 5. get node label from unsupervised learning [PAUSE]
 --- 5.  0.0 min ---

 ### 6. create giphi files label

 ### 7. Save pickle files
 --- 7.  0.08 min ---

 ### 8. get tweets for every user (even w/ no tweets)
/gpfsscratch/rech/kdj/unn89uy/GNN_QC/data/data_ZARATE/data_ZARATE_translated_v3/OTDirecto20E.csv
Total lines (file):  148061
Total lines (df):  148061 vs cpt= 148061
 --- 8.  0.12 min ---


 ### 8. Save ALL in dataset
 **** TOTAL time for topic :  0.13 hours ****



*======================================================================================*
-------- graph 7 / 30 : bolsonaro27 1 : bolsonaro27 * -------- 

*======================================================================================*
/gpfsscratch/rech/kdj/unn89uy/GNN_QC/data/data_objects/USR_QC_connex//ZARATE/RETWEET/temp_topic_objects/bolsonaro27/data_object.pickle : <not found>

 ### 1. get user graph information
/gpfsscratch/rech/kdj/unn89uy/GNN_QC/data/data_ZARATE/data_ZARATE_translated_v3/bolsonaro27.csv
Total lines (file):  120162
Number of user should be:  58651
Total lines (df):  120162 vs cpt= 120162
Total lines (RT):  94817
      **** test len before:  45544
      **** test len after:  45544
>> Number of user:  45544 ( 38863 only retweet )
          -> user not_present_in_graph:  0
          -> cpt (user not present in the graph also): 13107
no sort edges
 > normal count by edge (1)
>> number of duplicate edges :  6405
!!! NO !!! NOT REMOVING NODES WITH NO LINKS
 >>> pb None nodes:  0 / 88138
    > number of components: 964
/!\ WE EVEN TAKE NON-CONNEX COMPONENT /!\ 
<save data>

      <<<< FINAL GRAPH PULLED :  45544  Users - 88138  Edges >>>> 

--- 1.  6.75 min ---

 ### 2. get new node id and edge corresponding >>>
--- 2.  0.0 min ---

 ### 3. get node features
  > features = node degree
  > features = text inputs
 < get tokenizer:  basic >
read tokenizer>>
 < get tokenizer:  basic >
read tokenizer>>
%%% Test dict_node_features :  45544 45544 45500
 --- 3.  0.13 min ---

 ### 4. get node label communities
  #4.a. METIS LABEL
%%% Test dict_node_label_metis :  0
  #4.b. LOUVAIN LABEL
%%% Test dict_node_label_louvain :  0
 --- 4.  0.0 min ---

 ### 5. get node label from unsupervised learning [PAUSE]
 --- 5.  0.0 min ---

 ### 6. create giphi files label

 ### 7. Save pickle files
 --- 7.  0.13 min ---

 ### 8. get tweets for every user (even w/ no tweets)
/gpfsscratch/rech/kdj/unn89uy/GNN_QC/data/data_ZARATE/data_ZARATE_translated_v3/bolsonaro27.csv
Total lines (file):  120162
Total lines (df):  120162 vs cpt= 120162
 --- 8.  0.1 min ---


 ### 8. Save ALL in dataset
 **** TOTAL time for topic :  0.12 hours ****



*======================================================================================*
-------- graph 8 / 30 : bolsonaro28 1 : bolsonaro28 * -------- 

*======================================================================================*
/gpfsscratch/rech/kdj/unn89uy/GNN_QC/data/data_objects/USR_QC_connex//ZARATE/RETWEET/temp_topic_objects/bolsonaro28/data_object.pickle : <not found>

 ### 1. get user graph information
/gpfsscratch/rech/kdj/unn89uy/GNN_QC/data/data_ZARATE/data_ZARATE_translated_v3/bolsonaro28.csv
Total lines (file):  151952
Number of user should be:  112000
Total lines (df):  151952 vs cpt= 151952
Total lines (RT):  107990
      **** test len before:  84793
      **** test len after:  84793
>> Number of user:  84793 ( 68517 only retweet )
          -> user not_present_in_graph:  0
          -> cpt (user not present in the graph also): 27207
no sort edges
 > normal count by edge (1)
>> number of duplicate edges :  2891
!!! NO !!! NOT REMOVING NODES WITH NO LINKS
 >>> pb None nodes:  0 / 104932
    > number of components: 5343
/!\ WE EVEN TAKE NON-CONNEX COMPONENT /!\ 
<save data>

      <<<< FINAL GRAPH PULLED :  84793  Users - 104932  Edges >>>> 

--- 1.  12.56 min ---

 ### 2. get new node id and edge corresponding >>>
--- 2.  0.0 min ---

 ### 3. get node features
  > features = node degree
  > features = text inputs
 < get tokenizer:  basic >
read tokenizer>>
 < get tokenizer:  basic >
read tokenizer>>
%%% Test dict_node_features :  84793 84793 84729
 --- 3.  0.21 min ---

 ### 4. get node label communities
  #4.a. METIS LABEL
%%% Test dict_node_label_metis :  0
  #4.b. LOUVAIN LABEL
%%% Test dict_node_label_louvain :  0
 --- 4.  0.0 min ---

 ### 5. get node label from unsupervised learning [PAUSE]
 --- 5.  0.0 min ---

 ### 6. create giphi files label

 ### 7. Save pickle files
 --- 7.  0.24 min ---

 ### 8. get tweets for every user (even w/ no tweets)
/gpfsscratch/rech/kdj/unn89uy/GNN_QC/data/data_ZARATE/data_ZARATE_translated_v3/bolsonaro28.csv
Total lines (file):  151952
Total lines (df):  151952 vs cpt= 151952
 --- 8.  0.13 min ---


 ### 8. Save ALL in dataset
 **** TOTAL time for topic :  0.22 hours ****



*======================================================================================*
-------- graph 9 / 30 : VanduMuruganAJITH 0 : VanduMuruganAJITH * -------- 

*======================================================================================*
/gpfsscratch/rech/kdj/unn89uy/GNN_QC/data/data_objects/USR_QC_connex//ZARATE/RETWEET/temp_topic_objects/VanduMuruganAJITH/data_object.pickle : <not found>

 ### 1. get user graph information
/gpfsscratch/rech/kdj/unn89uy/GNN_QC/data/data_ZARATE/data_ZARATE_translated_v3/VanduMuruganAJITH.csv
Total lines (file):  167434
Number of user should be:  8054
Total lines (df):  167434 vs cpt= 167434
Total lines (RT):  162830
      **** test len before:  8035
      **** test len after:  8035
>> Number of user:  8035 ( 6003 only retweet )
          -> user not_present_in_graph:  0
          -> cpt (user not present in the graph also): 19
no sort edges
 > normal count by edge (1)
>> number of duplicate edges :  49055
!!! NO !!! NOT REMOVING NODES WITH NO LINKS
 >>> pb None nodes:  0 / 113099
    > number of components: 6
/!\ WE EVEN TAKE NON-CONNEX COMPONENT /!\ 
<save data>

      <<<< FINAL GRAPH PULLED :  8035  Users - 113099  Edges >>>> 

--- 1.  14.61 min ---

 ### 2. get new node id and edge corresponding >>>
--- 2.  0.0 min ---

 ### 3. get node features
  > features = node degree
  > features = text inputs
 < get tokenizer:  basic >
read tokenizer>>
 < get tokenizer:  basic >
read tokenizer>>
%%% Test dict_node_features :  8035 8035 8034
 --- 3.  0.02 min ---

 ### 4. get node label communities
  #4.a. METIS LABEL
%%% Test dict_node_label_metis :  0
  #4.b. LOUVAIN LABEL
%%% Test dict_node_label_louvain :  0
 --- 4.  0.0 min ---

 ### 5. get node label from unsupervised learning [PAUSE]
 --- 5.  0.0 min ---

 ### 6. create giphi files label

 ### 7. Save pickle files
 --- 7.  0.04 min ---

 ### 8. get tweets for every user (even w/ no tweets)
/gpfsscratch/rech/kdj/unn89uy/GNN_QC/data/data_ZARATE/data_ZARATE_translated_v3/VanduMuruganAJITH.csv
Total lines (file):  167434
Total lines (df):  167434 vs cpt= 167434
 --- 8.  0.14 min ---


 ### 8. Save ALL in dataset
 **** TOTAL time for topic :  0.25 hours ****



*======================================================================================*
-------- graph 10 / 30 : nintendo 0 : nintendo * -------- 

*======================================================================================*
/gpfsscratch/rech/kdj/unn89uy/GNN_QC/data/data_objects/USR_QC_connex//ZARATE/RETWEET/temp_topic_objects/nintendo/data_object.pickle : <not found>

 ### 1. get user graph information
/gpfsscratch/rech/kdj/unn89uy/GNN_QC/data/data_ZARATE/data_ZARATE_translated_v3/nintendo.csv
Total lines (file):  166145
Number of user should be:  117139
Total lines (df):  166145 vs cpt= 166145
Total lines (RT):  111329
      **** test len before:  94185
      **** test len after:  94185
>> Number of user:  94185 ( 85423 only retweet )
          -> user not_present_in_graph:  0
          -> cpt (user not present in the graph also): 22954
no sort edges
 > normal count by edge (1)
>> number of duplicate edges :  4996
!!! NO !!! NOT REMOVING NODES WITH NO LINKS
 >>> pb None nodes:  0 / 105732
    > number of components: 1850
/!\ WE EVEN TAKE NON-CONNEX COMPONENT /!\ 
<save data>

      <<<< FINAL GRAPH PULLED :  94185  Users - 105732  Edges >>>> 

--- 1.  13.1 min ---

 ### 2. get new node id and edge corresponding >>>
--- 2.  0.0 min ---

 ### 3. get node features
  > features = node degree
  > features = text inputs
 < get tokenizer:  basic >
read tokenizer>>
 < get tokenizer:  basic >
read tokenizer>>
%%% Test dict_node_features :  94185 94185 94057
 --- 3.  0.23 min ---

 ### 4. get node label communities
  #4.a. METIS LABEL
%%% Test dict_node_label_metis :  0
  #4.b. LOUVAIN LABEL
%%% Test dict_node_label_louvain :  0
 --- 4.  0.0 min ---

 ### 5. get node label from unsupervised learning [PAUSE]
 --- 5.  0.0 min ---

 ### 6. create giphi files label

 ### 7. Save pickle files
 --- 7.  0.25 min ---

 ### 8. get tweets for every user (even w/ no tweets)
/gpfsscratch/rech/kdj/unn89uy/GNN_QC/data/data_ZARATE/data_ZARATE_translated_v3/nintendo.csv
Total lines (file):  166145
Total lines (df):  166145 vs cpt= 166145
 --- 8.  0.15 min ---


 ### 8. Save ALL in dataset
 **** TOTAL time for topic :  0.23 hours ****



*======================================================================================*
-------- graph 11 / 30 : messicumple 0 : messicumple * -------- 

*======================================================================================*
/gpfsscratch/rech/kdj/unn89uy/GNN_QC/data/data_objects/USR_QC_connex//ZARATE/RETWEET/temp_topic_objects/messicumple/data_object.pickle : <not found>

 ### 1. get user graph information
/gpfsscratch/rech/kdj/unn89uy/GNN_QC/data/data_ZARATE/data_ZARATE_translated_v3/messicumple.csv
Total lines (file):  177770
Number of user should be:  121035
Total lines (df):  177770 vs cpt= 177770
Total lines (RT):  134647
      **** test len before:  98320
      **** test len after:  98320
>> Number of user:  98320 ( 88124 only retweet )
          -> user not_present_in_graph:  0
          -> cpt (user not present in the graph also): 22715
no sort edges
 > normal count by edge (1)
>> number of duplicate edges :  6348
!!! NO !!! NOT REMOVING NODES WITH NO LINKS
 >>> pb None nodes:  0 / 128077
    > number of components: 1747
/!\ WE EVEN TAKE NON-CONNEX COMPONENT /!\ 
<save data>

      <<<< FINAL GRAPH PULLED :  98320  Users - 128077  Edges >>>> 

--- 1.  17.04 min ---

 ### 2. get new node id and edge corresponding >>>
--- 2.  0.0 min ---

 ### 3. get node features
  > features = node degree
  > features = text inputs
 < get tokenizer:  basic >
read tokenizer>>
 < get tokenizer:  basic >
read tokenizer>>
%%% Test dict_node_features :  98320 98320 98251
 --- 3.  0.19 min ---

 ### 4. get node label communities
  #4.a. METIS LABEL
%%% Test dict_node_label_metis :  0
  #4.b. LOUVAIN LABEL
%%% Test dict_node_label_louvain :  0
 --- 4.  0.0 min ---

 ### 5. get node label from unsupervised learning [PAUSE]
 --- 5.  0.0 min ---

 ### 6. create giphi files label

 ### 7. Save pickle files
 --- 7.  0.28 min ---

 ### 8. get tweets for every user (even w/ no tweets)
/gpfsscratch/rech/kdj/unn89uy/GNN_QC/data/data_ZARATE/data_ZARATE_translated_v3/messicumple.csv
Total lines (file):  177770
Total lines (df):  177770 vs cpt= 177770
 --- 8.  0.15 min ---


 ### 8. Save ALL in dataset
 **** TOTAL time for topic :  0.29 hours ****



*======================================================================================*
-------- graph 12 / 30 : wrestlemania 0 : wrestlemania * -------- 

*======================================================================================*
/gpfsscratch/rech/kdj/unn89uy/GNN_QC/data/data_objects/USR_QC_connex//ZARATE/RETWEET/temp_topic_objects/wrestlemania/data_object.pickle : <not found>

 ### 1. get user graph information
/gpfsscratch/rech/kdj/unn89uy/GNN_QC/data/data_ZARATE/data_ZARATE_translated_v3/wrestlemania.csv
Total lines (file):  213355
Number of user should be:  77162
Total lines (df):  213355 vs cpt= 213355
Total lines (RT):  149254
      **** test len before:  60888
      **** test len after:  60888
>> Number of user:  60888 ( 48928 only retweet )
          -> user not_present_in_graph:  0
          -> cpt (user not present in the graph also): 16274
no sort edges
 > normal count by edge (1)
>> number of duplicate edges :  42582
!!! NO !!! NOT REMOVING NODES WITH NO LINKS
 >>> pb None nodes:  0 / 106307
    > number of components: 1161
/!\ WE EVEN TAKE NON-CONNEX COMPONENT /!\ 
<save data>

      <<<< FINAL GRAPH PULLED :  60888  Users - 106307  Edges >>>> 

--- 1.  16.69 min ---

 ### 2. get new node id and edge corresponding >>>
--- 2.  0.0 min ---

 ### 3. get node features
  > features = node degree
  > features = text inputs
 < get tokenizer:  basic >
read tokenizer>>
 < get tokenizer:  basic >
read tokenizer>>
%%% Test dict_node_features :  60888 60888 60821
 --- 3.  0.24 min ---

 ### 4. get node label communities
  #4.a. METIS LABEL
%%% Test dict_node_label_metis :  0
  #4.b. LOUVAIN LABEL
%%% Test dict_node_label_louvain :  0
 --- 4.  0.0 min ---

 ### 5. get node label from unsupervised learning [PAUSE]
 --- 5.  0.0 min ---

 ### 6. create giphi files label

 ### 7. Save pickle files
 --- 7.  0.18 min ---

 ### 8. get tweets for every user (even w/ no tweets)
/gpfsscratch/rech/kdj/unn89uy/GNN_QC/data/data_ZARATE/data_ZARATE_translated_v3/wrestlemania.csv
Total lines (file):  213355
Total lines (df):  213355 vs cpt= 213355
 --- 8.  0.18 min ---


 ### 8. Save ALL in dataset
 **** TOTAL time for topic :  0.29 hours ****



*======================================================================================*
-------- graph 13 / 30 : kingjacksonday 0 : kingjacksonday * -------- 

*======================================================================================*
/gpfsscratch/rech/kdj/unn89uy/GNN_QC/data/data_objects/USR_QC_connex//ZARATE/RETWEET/temp_topic_objects/kingjacksonday/data_object.pickle : <not found>

 ### 1. get user graph information
/gpfsscratch/rech/kdj/unn89uy/GNN_QC/data/data_ZARATE/data_ZARATE_translated_v3/kingjacksonday.csv
Total lines (file):  142240
Number of user should be:  43118
Total lines (df):  142240 vs cpt= 142240
Total lines (RT):  118323
      **** test len before:  38768
      **** test len after:  38768
>> Number of user:  38768 ( 27168 only retweet )
          -> user not_present_in_graph:  0
          -> cpt (user not present in the graph also): 4350
no sort edges
 > normal count by edge (1)
>> number of duplicate edges :  10567
!!! NO !!! NOT REMOVING NODES WITH NO LINKS
 >>> pb None nodes:  0 / 107166
    > number of components: 88
/!\ WE EVEN TAKE NON-CONNEX COMPONENT /!\ 
<save data>

      <<<< FINAL GRAPH PULLED :  38768  Users - 107166  Edges >>>> 

--- 1.  9.55 min ---

 ### 2. get new node id and edge corresponding >>>
--- 2.  0.0 min ---

 ### 3. get node features
  > features = node degree
  > features = text inputs
 < get tokenizer:  basic >
read tokenizer>>
 < get tokenizer:  basic >
read tokenizer>>
%%% Test dict_node_features :  38768 38768 38719
 --- 3.  0.11 min ---

 ### 4. get node label communities
  #4.a. METIS LABEL
%%% Test dict_node_label_metis :  0
  #4.b. LOUVAIN LABEL
%%% Test dict_node_label_louvain :  0
 --- 4.  0.0 min ---

 ### 5. get node label from unsupervised learning [PAUSE]
 --- 5.  0.0 min ---

 ### 6. create giphi files label

 ### 7. Save pickle files
 --- 7.  0.11 min ---

 ### 8. get tweets for every user (even w/ no tweets)
/gpfsscratch/rech/kdj/unn89uy/GNN_QC/data/data_ZARATE/data_ZARATE_translated_v3/kingjacksonday.csv
Total lines (file):  142240
Total lines (df):  142240 vs cpt= 142240
 --- 8.  0.12 min ---


 ### 8. Save ALL in dataset
 **** TOTAL time for topic :  0.17 hours ****



*======================================================================================*
-------- graph 14 / 30 : kavanaugh06-08 1 : kavanaugh06-08 * -------- 

*======================================================================================*
/gpfsscratch/rech/kdj/unn89uy/GNN_QC/data/data_objects/USR_QC_connex//ZARATE/RETWEET/temp_topic_objects/kavanaugh06-08/data_object.pickle : <not found>

 ### 1. get user graph information
/gpfsscratch/rech/kdj/unn89uy/GNN_QC/data/data_ZARATE/data_ZARATE_translated_v3/kavanaugh06-08.csv
Total lines (file):  157721
Number of user should be:  85992
Total lines (df):  157721 vs cpt= 157721
Total lines (RT):  129753
      **** test len before:  71851
      **** test len after:  71851
>> Number of user:  71851 ( 61342 only retweet )
          -> user not_present_in_graph:  0
          -> cpt (user not present in the graph also): 14141
no sort edges
 > normal count by edge (1)
>> number of duplicate edges :  6170
!!! NO !!! NOT REMOVING NODES WITH NO LINKS
 >>> pb None nodes:  0 / 123000
    > number of components: 1790
/!\ WE EVEN TAKE NON-CONNEX COMPONENT /!\ 
<save data>

      <<<< FINAL GRAPH PULLED :  71851  Users - 123000  Edges >>>> 

--- 1.  15.27 min ---

 ### 2. get new node id and edge corresponding >>>
--- 2.  0.0 min ---

 ### 3. get node features
  > features = node degree
  > features = text inputs
 < get tokenizer:  basic >
read tokenizer>>
 < get tokenizer:  basic >
read tokenizer>>
%%% Test dict_node_features :  71851 71851 71737
 --- 3.  0.17 min ---

 ### 4. get node label communities
  #4.a. METIS LABEL
%%% Test dict_node_label_metis :  0
  #4.b. LOUVAIN LABEL
%%% Test dict_node_label_louvain :  0
 --- 4.  0.0 min ---

 ### 5. get node label from unsupervised learning [PAUSE]
 --- 5.  0.0 min ---

 ### 6. create giphi files label

 ### 7. Save pickle files
 --- 7.  0.19 min ---

 ### 8. get tweets for every user (even w/ no tweets)
/gpfsscratch/rech/kdj/unn89uy/GNN_QC/data/data_ZARATE/data_ZARATE_translated_v3/kavanaugh06-08.csv
Total lines (file):  157721
Total lines (df):  157721 vs cpt= 157721
 --- 8.  0.14 min ---


 ### 8. Save ALL in dataset
 **** TOTAL time for topic :  0.26 hours ****



*======================================================================================*
-------- graph 15 / 30 : bolsonaro30 1 : bolsonaro30 * -------- 

*======================================================================================*
/gpfsscratch/rech/kdj/unn89uy/GNN_QC/data/data_objects/USR_QC_connex//ZARATE/RETWEET/temp_topic_objects/bolsonaro30/data_object.pickle : <not found>

 ### 1. get user graph information
/gpfsscratch/rech/kdj/unn89uy/GNN_QC/data/data_ZARATE/data_ZARATE_translated_v3/bolsonaro30.csv
Total lines (file):  174565
Number of user should be:  91998
Total lines (df):  174565 vs cpt= 174565
Total lines (RT):  139382
      **** test len before:  73312
      **** test len after:  73312
>> Number of user:  73312 ( 63772 only retweet )
          -> user not_present_in_graph:  0
          -> cpt (user not present in the graph also): 18686
no sort edges
 > normal count by edge (1)
>> number of duplicate edges :  8384
!!! NO !!! NOT REMOVING NODES WITH NO LINKS
 >>> pb None nodes:  0 / 130574
    > number of components: 1898
/!\ WE EVEN TAKE NON-CONNEX COMPONENT /!\ 
<save data>

      <<<< FINAL GRAPH PULLED :  73312  Users - 130574  Edges >>>> 

--- 1.  17.08 min ---

 ### 2. get new node id and edge corresponding >>>
--- 2.  0.0 min ---

 ### 3. get node features
  > features = node degree
  > features = text inputs
 < get tokenizer:  basic >
read tokenizer>>
 < get tokenizer:  basic >
read tokenizer>>
%%% Test dict_node_features :  73312 73312 73250
 --- 3.  0.17 min ---

 ### 4. get node label communities
  #4.a. METIS LABEL
%%% Test dict_node_label_metis :  0
  #4.b. LOUVAIN LABEL
%%% Test dict_node_label_louvain :  0
 --- 4.  0.0 min ---

 ### 5. get node label from unsupervised learning [PAUSE]
 --- 5.  0.0 min ---

 ### 6. create giphi files label

 ### 7. Save pickle files
 --- 7.  0.21 min ---

 ### 8. get tweets for every user (even w/ no tweets)
/gpfsscratch/rech/kdj/unn89uy/GNN_QC/data/data_ZARATE/data_ZARATE_translated_v3/bolsonaro30.csv
Total lines (file):  174565
Total lines (df):  174565 vs cpt= 174565
 --- 8.  0.15 min ---


 ### 8. Save ALL in dataset
 **** TOTAL time for topic :  0.29 hours ****



*======================================================================================*
-------- graph 16 / 30 : notredam 0 : notredam * -------- 

*======================================================================================*
/gpfsscratch/rech/kdj/unn89uy/GNN_QC/data/data_objects/USR_QC_connex//ZARATE/RETWEET/temp_topic_objects/notredam/data_object.pickle : <not found>

 ### 1. get user graph information
/gpfsscratch/rech/kdj/unn89uy/GNN_QC/data/data_ZARATE/data_ZARATE_translated_v3/notredam.csv
Total lines (file):  171306
Number of user should be:  105329
Total lines (df):  171306 vs cpt= 171306
Total lines (RT):  154187
      **** test len before:  99229
      **** test len after:  99229
>> Number of user:  99229 ( 90042 only retweet )
          -> user not_present_in_graph:  0
          -> cpt (user not present in the graph also): 6100
no sort edges
 > normal count by edge (1)
>> number of duplicate edges :  7525
!!! NO !!! NOT REMOVING NODES WITH NO LINKS
 >>> pb None nodes:  0 / 146246
    > number of components: 1858
/!\ WE EVEN TAKE NON-CONNEX COMPONENT /!\ 
<save data>

      <<<< FINAL GRAPH PULLED :  99229  Users - 146246  Edges >>>> 

--- 1.  23.39 min ---

 ### 2. get new node id and edge corresponding >>>
--- 2.  0.0 min ---

 ### 3. get node features
  > features = node degree
  > features = text inputs
 < get tokenizer:  basic >
read tokenizer>>
 < get tokenizer:  basic >
read tokenizer>>
%%% Test dict_node_features :  99229 99229 99162
 --- 3.  0.12 min ---

 ### 4. get node label communities
  #4.a. METIS LABEL
%%% Test dict_node_label_metis :  0
  #4.b. LOUVAIN LABEL
%%% Test dict_node_label_louvain :  0
 --- 4.  0.0 min ---

 ### 5. get node label from unsupervised learning [PAUSE]
 --- 5.  0.0 min ---

 ### 6. create giphi files label

 ### 7. Save pickle files
 --- 7.  0.28 min ---

 ### 8. get tweets for every user (even w/ no tweets)
/gpfsscratch/rech/kdj/unn89uy/GNN_QC/data/data_ZARATE/data_ZARATE_translated_v3/notredam.csv
Total lines (file):  171306
Total lines (df):  171306 vs cpt= 171306
 --- 8.  0.15 min ---


 ### 8. Save ALL in dataset
 **** TOTAL time for topic :  0.4 hours ****



*======================================================================================*
-------- graph 17 / 30 : Thanksgiving 0 : Thanksgiving * -------- 

*======================================================================================*
/gpfsscratch/rech/kdj/unn89uy/GNN_QC/data/data_objects/USR_QC_connex//ZARATE/RETWEET/temp_topic_objects/Thanksgiving/data_object.pickle : <not found>

 ### 1. get user graph information
/gpfsscratch/rech/kdj/unn89uy/GNN_QC/data/data_ZARATE/data_ZARATE_translated_v3/Thanksgiving.csv
Total lines (file):  250000
Number of user should be:  218247
Total lines (df):  250000 vs cpt= 250000
Total lines (RT):  168211
      **** test len before:  155283
      **** test len after:  155283
>> Number of user:  155283 ( 119131 only retweet )
          -> user not_present_in_graph:  0
          -> cpt (user not present in the graph also): 62964
no sort edges
 > normal count by edge (1)
>> number of duplicate edges :  3389
!!! NO !!! NOT REMOVING NODES WITH NO LINKS
 >>> pb None nodes:  0 / 164054
    > number of components: 17679
/!\ WE EVEN TAKE NON-CONNEX COMPONENT /!\ 
<save data>

      <<<< FINAL GRAPH PULLED :  155283  Users - 164054  Edges >>>> 

--- 1.  43.94 min ---

 ### 2. get new node id and edge corresponding >>>
--- 2.  0.01 min ---

 ### 3. get node features
  > features = node degree
  > features = text inputs
 < get tokenizer:  basic >
read tokenizer>>
 < get tokenizer:  basic >
read tokenizer>>
%%% Test dict_node_features :  155283 155283 154926
 --- 3.  0.42 min ---

 ### 4. get node label communities
  #4.a. METIS LABEL
%%% Test dict_node_label_metis :  0
  #4.b. LOUVAIN LABEL
%%% Test dict_node_label_louvain :  0
 --- 4.  0.0 min ---

 ### 5. get node label from unsupervised learning [PAUSE]
 --- 5.  0.0 min ---

 ### 6. create giphi files label

 ### 7. Save pickle files
 --- 7.  0.44 min ---

 ### 8. get tweets for every user (even w/ no tweets)
/gpfsscratch/rech/kdj/unn89uy/GNN_QC/data/data_ZARATE/data_ZARATE_translated_v3/Thanksgiving.csv
Total lines (file):  250000
Total lines (df):  250000 vs cpt= 250000
 --- 8.  0.22 min ---


 ### 8. Save ALL in dataset
 **** TOTAL time for topic :  0.75 hours ****



*======================================================================================*
-------- graph 18 / 30 : halsey 0 : halsey * -------- 

*======================================================================================*
/gpfsscratch/rech/kdj/unn89uy/GNN_QC/data/data_objects/USR_QC_connex//ZARATE/RETWEET/temp_topic_objects/halsey/data_object.pickle : <not found>

 ### 1. get user graph information
/gpfsscratch/rech/kdj/unn89uy/GNN_QC/data/data_ZARATE/data_ZARATE_translated_v3/halsey.csv
Total lines (file):  237501
Number of user should be:  108298
Total lines (df):  237501 vs cpt= 237501
Total lines (RT):  211993
      **** test len before:  97784
      **** test len after:  97784
>> Number of user:  97784 ( 89098 only retweet )
          -> user not_present_in_graph:  0
          -> cpt (user not present in the graph also): 10514
no sort edges
 > normal count by edge (1)
>> number of duplicate edges :  7748
!!! NO !!! NOT REMOVING NODES WITH NO LINKS
 >>> pb None nodes:  0 / 204115
    > number of components: 400
/!\ WE EVEN TAKE NON-CONNEX COMPONENT /!\ 
<save data>

      <<<< FINAL GRAPH PULLED :  97784  Users - 204115  Edges >>>> 

--- 1.  43.29 min ---

 ### 2. get new node id and edge corresponding >>>
--- 2.  0.01 min ---

 ### 3. get node features
  > features = node degree
  > features = text inputs
 < get tokenizer:  basic >
read tokenizer>>
 < get tokenizer:  basic >
read tokenizer>>
%%% Test dict_node_features :  97784 97784 97769
 --- 3.  0.14 min ---

 ### 4. get node label communities
  #4.a. METIS LABEL
%%% Test dict_node_label_metis :  0
  #4.b. LOUVAIN LABEL
%%% Test dict_node_label_louvain :  0
 --- 4.  0.0 min ---

 ### 5. get node label from unsupervised learning [PAUSE]
 --- 5.  0.0 min ---

 ### 6. create giphi files label

 ### 7. Save pickle files
 --- 7.  0.26 min ---

 ### 8. get tweets for every user (even w/ no tweets)
/gpfsscratch/rech/kdj/unn89uy/GNN_QC/data/data_ZARATE/data_ZARATE_translated_v3/halsey.csv
Total lines (file):  237501
Total lines (df):  237501 vs cpt= 237501
 --- 8.  0.21 min ---


 ### 8. Save ALL in dataset
 **** TOTAL time for topic :  0.73 hours ****



*======================================================================================*
-------- graph 19 / 30 : feliznatal 0 : feliznatal * -------- 

*======================================================================================*
/gpfsscratch/rech/kdj/unn89uy/GNN_QC/data/data_objects/USR_QC_connex//ZARATE/RETWEET/temp_topic_objects/feliznatal/data_object.pickle : <not found>

 ### 1. get user graph information
/gpfsscratch/rech/kdj/unn89uy/GNN_QC/data/data_ZARATE/data_ZARATE_translated_v3/feliznatal.csv
Total lines (file):  305879
Number of user should be:  253316
Total lines (df):  305879 vs cpt= 305879
Total lines (RT):  216714
      **** test len before:  192738
      **** test len after:  192738
>> Number of user:  192738 ( 159367 only retweet )
          -> user not_present_in_graph:  0
          -> cpt (user not present in the graph also): 60578
no sort edges
 > normal count by edge (1)
>> number of duplicate edges :  2764
!!! NO !!! NOT REMOVING NODES WITH NO LINKS
 >>> pb None nodes:  0 / 212465
    > number of components: 11918
/!\ WE EVEN TAKE NON-CONNEX COMPONENT /!\ 
<save data>

      <<<< FINAL GRAPH PULLED :  192738  Users - 212465  Edges >>>> 

--- 1.  72.2 min ---

 ### 2. get new node id and edge corresponding >>>
--- 2.  0.01 min ---

 ### 3. get node features
  > features = node degree
  > features = text inputs
 < get tokenizer:  basic >
read tokenizer>>
 < get tokenizer:  basic >
read tokenizer>>
%%% Test dict_node_features :  192738 192738 192316
 --- 3.  0.45 min ---

 ### 4. get node label communities
  #4.a. METIS LABEL
%%% Test dict_node_label_metis :  0
  #4.b. LOUVAIN LABEL
%%% Test dict_node_label_louvain :  0
 --- 4.  0.0 min ---

 ### 5. get node label from unsupervised learning [PAUSE]
 --- 5.  0.0 min ---

 ### 6. create giphi files label

 ### 7. Save pickle files
 --- 7.  0.51 min ---

 ### 8. get tweets for every user (even w/ no tweets)
/gpfsscratch/rech/kdj/unn89uy/GNN_QC/data/data_ZARATE/data_ZARATE_translated_v3/feliznatal.csv
Total lines (file):  305879
Total lines (df):  305879 vs cpt= 305879
 --- 8.  0.27 min ---


 ### 8. Save ALL in dataset
 **** TOTAL time for topic :  1.22 hours ****



*======================================================================================*
-------- graph 20 / 30 : kavanaugh16 1 : kavanaugh16 * -------- 

*======================================================================================*
/gpfsscratch/rech/kdj/unn89uy/GNN_QC/data/data_objects/USR_QC_connex//ZARATE/RETWEET/temp_topic_objects/kavanaugh16/data_object.pickle : <not found>

 ### 1. get user graph information
/gpfsscratch/rech/kdj/unn89uy/GNN_QC/data/data_ZARATE/data_ZARATE_translated_v3/kavanaugh16.csv
Total lines (file):  168571
Number of user should be:  80303
Total lines (df):  168571 vs cpt= 168571
Total lines (RT):  141059
      **** test len before:  66660
      **** test len after:  66660
>> Number of user:  66660 ( 55560 only retweet )
          -> user not_present_in_graph:  0
          -> cpt (user not present in the graph also): 13643
no sort edges
 > normal count by edge (1)
>> number of duplicate edges :  9270
!!! NO !!! NOT REMOVING NODES WITH NO LINKS
 >>> pb None nodes:  0 / 131220
    > number of components: 1319
/!\ WE EVEN TAKE NON-CONNEX COMPONENT /!\ 
<save data>

      <<<< FINAL GRAPH PULLED :  66660  Users - 131220  Edges >>>> 

--- 1.  17.12 min ---

 ### 2. get new node id and edge corresponding >>>
--- 2.  0.0 min ---

 ### 3. get node features
  > features = node degree
  > features = text inputs
 < get tokenizer:  basic >
read tokenizer>>
 < get tokenizer:  basic >
read tokenizer>>
%%% Test dict_node_features :  66660 66660 66540
 --- 3.  0.17 min ---

 ### 4. get node label communities
  #4.a. METIS LABEL
%%% Test dict_node_label_metis :  0
  #4.b. LOUVAIN LABEL
%%% Test dict_node_label_louvain :  0
 --- 4.  0.0 min ---

 ### 5. get node label from unsupervised learning [PAUSE]
 --- 5.  0.0 min ---

 ### 6. create giphi files label

 ### 7. Save pickle files
 --- 7.  0.2 min ---

 ### 8. get tweets for every user (even w/ no tweets)
/gpfsscratch/rech/kdj/unn89uy/GNN_QC/data/data_ZARATE/data_ZARATE_translated_v3/kavanaugh16.csv
Total lines (file):  168571
Total lines (df):  168571 vs cpt= 168571
 --- 8.  0.14 min ---


 ### 8. Save ALL in dataset
 **** TOTAL time for topic :  0.29 hours ****



*======================================================================================*
-------- graph 21 / 30 : kavanaugh02-05 1 : kavanaugh02-05 * -------- 

*======================================================================================*
/gpfsscratch/rech/kdj/unn89uy/GNN_QC/data/data_objects/USR_QC_connex//ZARATE/RETWEET/temp_topic_objects/kavanaugh02-05/data_object.pickle : <not found>

 ### 1. get user graph information
/gpfsscratch/rech/kdj/unn89uy/GNN_QC/data/data_ZARATE/data_ZARATE_translated_v3/kavanaugh02-05.csv
Total lines (file):  181202
Number of user should be:  88975
Total lines (df):  181202 vs cpt= 181202
Total lines (RT):  152973
      **** test len before:  74754
      **** test len after:  74754
>> Number of user:  74754 ( 63022 only retweet )
          -> user not_present_in_graph:  0
          -> cpt (user not present in the graph also): 14221
no sort edges
 > normal count by edge (1)
>> number of duplicate edges :  7091
!!! NO !!! NOT REMOVING NODES WITH NO LINKS
 >>> pb None nodes:  0 / 145448
    > number of components: 1350
/!\ WE EVEN TAKE NON-CONNEX COMPONENT /!\ 
<save data>

      <<<< FINAL GRAPH PULLED :  74754  Users - 145448  Edges >>>> 

--- 1.  22.94 min ---

 ### 2. get new node id and edge corresponding >>>
--- 2.  0.0 min ---

 ### 3. get node features
  > features = node degree
  > features = text inputs
 < get tokenizer:  basic >
read tokenizer>>
 < get tokenizer:  basic >
read tokenizer>>
%%% Test dict_node_features :  74754 74754 74647
 --- 3.  0.17 min ---

 ### 4. get node label communities
  #4.a. METIS LABEL
%%% Test dict_node_label_metis :  0
  #4.b. LOUVAIN LABEL
%%% Test dict_node_label_louvain :  0
 --- 4.  0.0 min ---

 ### 5. get node label from unsupervised learning [PAUSE]
 --- 5.  0.0 min ---

 ### 6. create giphi files label

 ### 7. Save pickle files
 --- 7.  0.2 min ---

 ### 8. get tweets for every user (even w/ no tweets)
/gpfsscratch/rech/kdj/unn89uy/GNN_QC/data/data_ZARATE/data_ZARATE_translated_v3/kavanaugh02-05.csv
Total lines (file):  181202
Total lines (df):  181202 vs cpt= 181202
 --- 8.  0.15 min ---


 ### 8. Save ALL in dataset
 **** TOTAL time for topic :  0.39 hours ****



*======================================================================================*
-------- graph 22 / 30 : EXODEUX 0 : EXODEUX * -------- 

*======================================================================================*
/gpfsscratch/rech/kdj/unn89uy/GNN_QC/data/data_objects/USR_QC_connex//ZARATE/RETWEET/temp_topic_objects/EXODEUX/data_object.pickle : <not found>

 ### 1. get user graph information
/gpfsscratch/rech/kdj/unn89uy/GNN_QC/data/data_ZARATE/data_ZARATE_translated_v3/EXODEUX.csv
Total lines (file):  179908
Number of user should be:  37510
Total lines (df):  179908 vs cpt= 179908
Total lines (RT):  166297
      **** test len before:  36534
      **** test len after:  36534
>> Number of user:  36534 ( 29732 only retweet )
          -> user not_present_in_graph:  0
          -> cpt (user not present in the graph also): 976
no sort edges
 > normal count by edge (1)
>> number of duplicate edges :  30428
!!! NO !!! NOT REMOVING NODES WITH NO LINKS
 >>> pb None nodes:  0 / 135511
    > number of components: 138
/!\ WE EVEN TAKE NON-CONNEX COMPONENT /!\ 
<save data>

      <<<< FINAL GRAPH PULLED :  36534  Users - 135511  Edges >>>> 

--- 1.  20.06 min ---

 ### 2. get new node id and edge corresponding >>>
--- 2.  0.0 min ---

 ### 3. get node features
  > features = node degree
  > features = text inputs
 < get tokenizer:  basic >
read tokenizer>>
 < get tokenizer:  basic >
read tokenizer>>
%%% Test dict_node_features :  36534 36534 36519
 --- 3.  0.08 min ---

 ### 4. get node label communities
  #4.a. METIS LABEL
%%% Test dict_node_label_metis :  0
  #4.b. LOUVAIN LABEL
%%% Test dict_node_label_louvain :  0
 --- 4.  0.0 min ---

 ### 5. get node label from unsupervised learning [PAUSE]
 --- 5.  0.0 min ---

 ### 6. create giphi files label

 ### 7. Save pickle files
 --- 7.  0.12 min ---

 ### 8. get tweets for every user (even w/ no tweets)
/gpfsscratch/rech/kdj/unn89uy/GNN_QC/data/data_ZARATE/data_ZARATE_translated_v3/EXODEUX.csv
Total lines (file):  179908
Total lines (df):  179908 vs cpt= 179908
 --- 8.  0.15 min ---


 ### 8. Save ALL in dataset
 **** TOTAL time for topic :  0.34 hours ****



*======================================================================================*
-------- graph 23 / 30 : bigil 0 : bigil * -------- 

*======================================================================================*
/gpfsscratch/rech/kdj/unn89uy/GNN_QC/data/data_objects/USR_QC_connex//ZARATE/RETWEET/temp_topic_objects/bigil/data_object.pickle : <not found>

 ### 1. get user graph information
/gpfsscratch/rech/kdj/unn89uy/GNN_QC/data/data_ZARATE/data_ZARATE_translated_v3/bigil.csv
Total lines (file):  205557
Number of user should be:  26685
Total lines (df):  205557 vs cpt= 205557
Total lines (RT):  199763
      **** test len before:  25461
      **** test len after:  25461
>> Number of user:  25461 ( 21285 only retweet )
          -> user not_present_in_graph:  0
          -> cpt (user not present in the graph also): 1224
no sort edges
 > normal count by edge (1)
>> number of duplicate edges :  28156
!!! NO !!! NOT REMOVING NODES WITH NO LINKS
 >>> pb None nodes:  0 / 171220
    > number of components: 97
/!\ WE EVEN TAKE NON-CONNEX COMPONENT /!\ 
<save data>

      <<<< FINAL GRAPH PULLED :  25461  Users - 171220  Edges >>>> 

--- 1.  29.42 min ---

 ### 2. get new node id and edge corresponding >>>
--- 2.  0.0 min ---

 ### 3. get node features
  > features = node degree
  > features = text inputs
 < get tokenizer:  basic >
read tokenizer>>
 < get tokenizer:  basic >
read tokenizer>>
%%% Test dict_node_features :  25461 25461 25441
 --- 3.  0.06 min ---

 ### 4. get node label communities
  #4.a. METIS LABEL
%%% Test dict_node_label_metis :  0
  #4.b. LOUVAIN LABEL
%%% Test dict_node_label_louvain :  0
 --- 4.  0.0 min ---

 ### 5. get node label from unsupervised learning [PAUSE]
 --- 5.  0.0 min ---

 ### 6. create giphi files label

 ### 7. Save pickle files
 --- 7.  0.07 min ---

 ### 8. get tweets for every user (even w/ no tweets)
/gpfsscratch/rech/kdj/unn89uy/GNN_QC/data/data_ZARATE/data_ZARATE_translated_v3/bigil.csv
Total lines (file):  205557
Total lines (df):  205557 vs cpt= 205557
 --- 8.  0.17 min ---


 ### 8. Save ALL in dataset
 **** TOTAL time for topic :  0.5 hours ****



*======================================================================================*
-------- graph 24 / 30 : lula_moro_chats 1 : lula_moro_chats * -------- 

*======================================================================================*
/gpfsscratch/rech/kdj/unn89uy/GNN_QC/data/data_objects/USR_QC_connex//ZARATE/RETWEET/temp_topic_objects/lula_moro_chats/data_object.pickle : <not found>

 ### 1. get user graph information
/gpfsscratch/rech/kdj/unn89uy/GNN_QC/data/data_ZARATE/data_ZARATE_translated_v3/lula_moro_chats.csv
Total lines (file):  199423
Number of user should be:  83830
Total lines (df):  199423 vs cpt= 199423
Total lines (RT):  157808
      **** test len before:  66293
      **** test len after:  66293
>> Number of user:  66293 ( 56728 only retweet )
          -> user not_present_in_graph:  0
          -> cpt (user not present in the graph also): 17537
no sort edges
 > normal count by edge (1)
>> number of duplicate edges :  14282
!!! NO !!! NOT REMOVING NODES WITH NO LINKS
 >>> pb None nodes:  0 / 143293
    > number of components: 538
/!\ WE EVEN TAKE NON-CONNEX COMPONENT /!\ 
<save data>

      <<<< FINAL GRAPH PULLED :  66293  Users - 143293  Edges >>>> 

--- 1.  22.27 min ---

 ### 2. get new node id and edge corresponding >>>
--- 2.  0.0 min ---

 ### 3. get node features
  > features = node degree
  > features = text inputs
 < get tokenizer:  basic >
read tokenizer>>
 < get tokenizer:  basic >
read tokenizer>>
%%% Test dict_node_features :  66293 66293 66254
 --- 3.  0.19 min ---

 ### 4. get node label communities
  #4.a. METIS LABEL
%%% Test dict_node_label_metis :  0
  #4.b. LOUVAIN LABEL
%%% Test dict_node_label_louvain :  0
 --- 4.  0.0 min ---

 ### 5. get node label from unsupervised learning [PAUSE]
 --- 5.  0.0 min ---

 ### 6. create giphi files label

 ### 7. Save pickle files
 --- 7.  0.21 min ---

 ### 8. get tweets for every user (even w/ no tweets)
/gpfsscratch/rech/kdj/unn89uy/GNN_QC/data/data_ZARATE/data_ZARATE_translated_v3/lula_moro_chats.csv
Total lines (file):  199423
Total lines (df):  199423 vs cpt= 199423
 --- 8.  0.17 min ---


 ### 8. Save ALL in dataset
 **** TOTAL time for topic :  0.38 hours ****



*======================================================================================*
-------- graph 25 / 30 : menciones-05-11abril 1 : menciones-05-11abril * -------- 

*======================================================================================*
/gpfsscratch/rech/kdj/unn89uy/GNN_QC/data/data_objects/USR_QC_connex//ZARATE/RETWEET/temp_topic_objects/menciones-05-11abril/data_object.pickle : <not found>

 ### 1. get user graph information
/gpfsscratch/rech/kdj/unn89uy/GNN_QC/data/data_ZARATE/data_ZARATE_translated_v3/menciones-05-11abril.csv
Total lines (file):  220460
Number of user should be:  76772
Total lines (df):  220460 vs cpt= 220460
Total lines (RT):  169351
      **** test len before:  63168
      **** test len after:  63168
>> Number of user:  63168 ( 50671 only retweet )
          -> user not_present_in_graph:  0
          -> cpt (user not present in the graph also): 13604
no sort edges
 > normal count by edge (1)
>> number of duplicate edges :  23503
!!! NO !!! NOT REMOVING NODES WITH NO LINKS
 >>> pb None nodes:  0 / 144537
    > number of components: 1039
/!\ WE EVEN TAKE NON-CONNEX COMPONENT /!\ 
<save data>

      <<<< FINAL GRAPH PULLED :  63168  Users - 144537  Edges >>>> 

--- 1.  25.63 min ---

 ### 2. get new node id and edge corresponding >>>
--- 2.  0.0 min ---

 ### 3. get node features
  > features = node degree
  > features = text inputs
 < get tokenizer:  basic >
read tokenizer>>
 < get tokenizer:  basic >
read tokenizer>>
%%% Test dict_node_features :  63168 63168 63076
 --- 3.  0.21 min ---

 ### 4. get node label communities
  #4.a. METIS LABEL
%%% Test dict_node_label_metis :  0
  #4.b. LOUVAIN LABEL
%%% Test dict_node_label_louvain :  0
 --- 4.  0.0 min ---

 ### 5. get node label from unsupervised learning [PAUSE]
 --- 5.  0.0 min ---

 ### 6. create giphi files label

 ### 7. Save pickle files
 --- 7.  0.18 min ---

 ### 8. get tweets for every user (even w/ no tweets)
/gpfsscratch/rech/kdj/unn89uy/GNN_QC/data/data_ZARATE/data_ZARATE_translated_v3/menciones-05-11abril.csv
Total lines (file):  220460
Total lines (df):  220460 vs cpt= 220460
 --- 8.  0.18 min ---


 ### 8. Save ALL in dataset
 **** TOTAL time for topic :  0.44 hours ****



*======================================================================================*
-------- graph 26 / 30 : LeadersDebate 1 : LeadersDebate * -------- 

*======================================================================================*
/gpfsscratch/rech/kdj/unn89uy/GNN_QC/data/data_objects/USR_QC_connex//ZARATE/RETWEET/temp_topic_objects/LeadersDebate/data_object.pickle : <not found>

 ### 1. get user graph information
/gpfsscratch/rech/kdj/unn89uy/GNN_QC/data/data_ZARATE/data_ZARATE_translated_v3/LeadersDebate.csv
Total lines (file):  250000
Number of user should be:  88886
Total lines (df):  250000 vs cpt= 250000
Total lines (RT):  200971
      **** test len before:  76492
      **** test len after:  76492
>> Number of user:  76492 ( 64551 only retweet )
          -> user not_present_in_graph:  0
          -> cpt (user not present in the graph also): 12394
no sort edges
 > normal count by edge (1)
>> number of duplicate edges :  25900
!!! NO !!! NOT REMOVING NODES WITH NO LINKS
 >>> pb None nodes:  0 / 174405
    > number of components: 931
/!\ WE EVEN TAKE NON-CONNEX COMPONENT /!\ 
<save data>

      <<<< FINAL GRAPH PULLED :  76492  Users - 174405  Edges >>>> 

--- 1.  38.55 min ---

 ### 2. get new node id and edge corresponding >>>
--- 2.  0.0 min ---

 ### 3. get node features
  > features = node degree
  > features = text inputs
 < get tokenizer:  basic >
read tokenizer>>
 < get tokenizer:  basic >
read tokenizer>>
%%% Test dict_node_features :  76492 76492 76436
 --- 3.  0.21 min ---

 ### 4. get node label communities
  #4.a. METIS LABEL
%%% Test dict_node_label_metis :  0
  #4.b. LOUVAIN LABEL
%%% Test dict_node_label_louvain :  0
 --- 4.  0.0 min ---

 ### 5. get node label from unsupervised learning [PAUSE]
 --- 5.  0.0 min ---

 ### 6. create giphi files label

 ### 7. Save pickle files
 --- 7.  0.22 min ---

 ### 8. get tweets for every user (even w/ no tweets)
/gpfsscratch/rech/kdj/unn89uy/GNN_QC/data/data_ZARATE/data_ZARATE_translated_v3/LeadersDebate.csv
Total lines (file):  250000
Total lines (df):  250000 vs cpt= 250000
 --- 8.  0.21 min ---


 ### 8. Save ALL in dataset
 **** TOTAL time for topic :  0.65 hours ****



*======================================================================================*
-------- graph 27 / 30 : championsasia 0 : championsasia * -------- 

*======================================================================================*
/gpfsscratch/rech/kdj/unn89uy/GNN_QC/data/data_objects/USR_QC_connex//ZARATE/RETWEET/temp_topic_objects/championsasia/data_object.pickle : <not found>

 ### 1. get user graph information
/gpfsscratch/rech/kdj/unn89uy/GNN_QC/data/data_ZARATE/data_ZARATE_translated_v3/championsasia.csv
Total lines (file):  221925
Number of user should be:  83193
Total lines (df):  221925 vs cpt= 221925
Total lines (RT):  177085
      **** test len before:  68559
      **** test len after:  68559
>> Number of user:  68559 ( 60594 only retweet )
          -> user not_present_in_graph:  0
          -> cpt (user not present in the graph also): 14634
no sort edges
 > normal count by edge (1)
>> number of duplicate edges :  30373
!!! NO !!! NOT REMOVING NODES WITH NO LINKS
 >>> pb None nodes:  0 / 145656
    > number of components: 939
/!\ WE EVEN TAKE NON-CONNEX COMPONENT /!\ 
<save data>

      <<<< FINAL GRAPH PULLED :  68559  Users - 145656  Edges >>>> 

--- 1.  26.64 min ---

 ### 2. get new node id and edge corresponding >>>
--- 2.  0.0 min ---

 ### 3. get node features
  > features = node degree
  > features = text inputs
 < get tokenizer:  basic >
read tokenizer>>
 < get tokenizer:  basic >
read tokenizer>>
%%% Test dict_node_features :  68559 68559 68346
 --- 3.  0.18 min ---

 ### 4. get node label communities
  #4.a. METIS LABEL
%%% Test dict_node_label_metis :  0
  #4.b. LOUVAIN LABEL
%%% Test dict_node_label_louvain :  0
 --- 4.  0.0 min ---

 ### 5. get node label from unsupervised learning [PAUSE]
 --- 5.  0.0 min ---

 ### 6. create giphi files label

 ### 7. Save pickle files
 --- 7.  0.19 min ---

 ### 8. get tweets for every user (even w/ no tweets)
/gpfsscratch/rech/kdj/unn89uy/GNN_QC/data/data_ZARATE/data_ZARATE_translated_v3/championsasia.csv
Total lines (file):  221925
Total lines (df):  221925 vs cpt= 221925
 --- 8.  0.19 min ---


 ### 8. Save ALL in dataset
 **** TOTAL time for topic :  0.45 hours ****



*======================================================================================*
-------- graph 28 / 30 : menciones05-11mayo 1 : menciones05-11mayo * -------- 

*======================================================================================*
/gpfsscratch/rech/kdj/unn89uy/GNN_QC/data/data_objects/USR_QC_connex//ZARATE/RETWEET/temp_topic_objects/menciones05-11mayo/data_object.pickle : <not found>

 ### 1. get user graph information
/gpfsscratch/rech/kdj/unn89uy/GNN_QC/data/data_ZARATE/data_ZARATE_translated_v3/menciones05-11mayo.csv
Total lines (file):  267283
Number of user should be:  74865
Total lines (df):  267283 vs cpt= 267283
Total lines (RT):  215497
      **** test len before:  62796
      **** test len after:  62796
>> Number of user:  62796 ( 50932 only retweet )
          -> user not_present_in_graph:  0
          -> cpt (user not present in the graph also): 12069
no sort edges
 > normal count by edge (1)
>> number of duplicate edges :  68279
!!! NO !!! NOT REMOVING NODES WITH NO LINKS
 >>> pb None nodes:  0 / 146166
    > number of components: 1314
/!\ WE EVEN TAKE NON-CONNEX COMPONENT /!\ 
<save data>

      <<<< FINAL GRAPH PULLED :  62796  Users - 146166  Edges >>>> 

--- 1.  37.46 min ---

 ### 2. get new node id and edge corresponding >>>
--- 2.  0.0 min ---

 ### 3. get node features
  > features = node degree
  > features = text inputs
 < get tokenizer:  basic >
read tokenizer>>
 < get tokenizer:  basic >
read tokenizer>>
%%% Test dict_node_features :  62796 62796 62724
 --- 3.  0.18 min ---

 ### 4. get node label communities
  #4.a. METIS LABEL
%%% Test dict_node_label_metis :  0
  #4.b. LOUVAIN LABEL
%%% Test dict_node_label_louvain :  0
 --- 4.  0.0 min ---

 ### 5. get node label from unsupervised learning [PAUSE]
 --- 5.  0.0 min ---

 ### 6. create giphi files label

 ### 7. Save pickle files
 --- 7.  0.18 min ---

 ### 8. get tweets for every user (even w/ no tweets)
/gpfsscratch/rech/kdj/unn89uy/GNN_QC/data/data_ZARATE/data_ZARATE_translated_v3/menciones05-11mayo.csv
Total lines (file):  267283
Total lines (df):  267283 vs cpt= 267283
 --- 8.  0.22 min ---


 ### 8. Save ALL in dataset
 **** TOTAL time for topic :  0.63 hours ****



*======================================================================================*
-------- graph 29 / 30 : SeungWooBirthday 0 : SeungWooBirthday * -------- 

*======================================================================================*
/gpfsscratch/rech/kdj/unn89uy/GNN_QC/data/data_objects/USR_QC_connex//ZARATE/RETWEET/temp_topic_objects/SeungWooBirthday/data_object.pickle : <not found>

 ### 1. get user graph information
/gpfsscratch/rech/kdj/unn89uy/GNN_QC/data/data_ZARATE/data_ZARATE_translated_v3/SeungWooBirthday.csv
Total lines (file):  251974
Number of user should be:  18502
Total lines (df):  251974 vs cpt= 251974
Total lines (RT):  233361
      **** test len before:  17618
      **** test len after:  17618
>> Number of user:  17618 ( 11603 only retweet )
          -> user not_present_in_graph:  0
          -> cpt (user not present in the graph also): 884
no sort edges
 > normal count by edge (1)
>> number of duplicate edges :  38565
!!! NO !!! NOT REMOVING NODES WITH NO LINKS
 >>> pb None nodes:  0 / 192902
    > number of components: 34
/!\ WE EVEN TAKE NON-CONNEX COMPONENT /!\ 
<save data>

      <<<< FINAL GRAPH PULLED :  17618  Users - 192902  Edges >>>> 

--- 1.  35.9 min ---

 ### 2. get new node id and edge corresponding >>>
--- 2.  0.0 min ---

 ### 3. get node features
  > features = node degree
  > features = text inputs
 < get tokenizer:  basic >
read tokenizer>>
 < get tokenizer:  basic >
read tokenizer>>
%%% Test dict_node_features :  17618 17618 17613
 --- 3.  0.07 min ---

 ### 4. get node label communities
  #4.a. METIS LABEL
%%% Test dict_node_label_metis :  0
  #4.b. LOUVAIN LABEL
%%% Test dict_node_label_louvain :  0
 --- 4.  0.0 min ---

 ### 5. get node label from unsupervised learning [PAUSE]
 --- 5.  0.0 min ---

 ### 6. create giphi files label

 ### 7. Save pickle files
 --- 7.  0.05 min ---

 ### 8. get tweets for every user (even w/ no tweets)
/gpfsscratch/rech/kdj/unn89uy/GNN_QC/data/data_ZARATE/data_ZARATE_translated_v3/SeungWooBirthday.csv
Total lines (file):  251974
Total lines (df):  251974 vs cpt= 251974
 --- 8.  0.2 min ---


 ### 8. Save ALL in dataset
 **** TOTAL time for topic :  0.6 hours ****



*======================================================================================*
-------- graph 30 / 30 : menciones-11-18marzo 1 : menciones-11-18marzo * -------- 

*======================================================================================*
/gpfsscratch/rech/kdj/unn89uy/GNN_QC/data/data_objects/USR_QC_connex//ZARATE/RETWEET/temp_topic_objects/menciones-11-18marzo/data_object.pickle : <not found>

 ### 1. get user graph information
/gpfsscratch/rech/kdj/unn89uy/GNN_QC/data/data_ZARATE/data_ZARATE_translated_v3/menciones-11-18marzo.csv
Total lines (file):  406869
Number of user should be:  39901
Total lines (df):  406869 vs cpt= 406869
Total lines (RT):  275056
      **** test len before:  31501
      **** test len after:  31501
>> Number of user:  31501 ( 24105 only retweet )
          -> user not_present_in_graph:  0
          -> cpt (user not present in the graph also): 8400
no sort edges
 > normal count by edge (1)
>> number of duplicate edges :  212470
!!! NO !!! NOT REMOVING NODES WITH NO LINKS
 >>> pb None nodes:  0 / 58737
    > number of components: 469
/!\ WE EVEN TAKE NON-CONNEX COMPONENT /!\ 
<save data>

      <<<< FINAL GRAPH PULLED :  31501  Users - 58737  Edges >>>> 

--- 1.  40.02 min ---

 ### 2. get new node id and edge corresponding >>>
--- 2.  0.0 min ---

 ### 3. get node features
  > features = node degree
  > features = text inputs
 < get tokenizer:  basic >
read tokenizer>>
 < get tokenizer:  basic >
read tokenizer>>
%%% Test dict_node_features :  31501 31501 31431
 --- 3.  0.11 min ---

 ### 4. get node label communities
  #4.a. METIS LABEL
%%% Test dict_node_label_metis :  0
  #4.b. LOUVAIN LABEL
%%% Test dict_node_label_louvain :  0
 --- 4.  0.0 min ---

 ### 5. get node label from unsupervised learning [PAUSE]
 --- 5.  0.0 min ---

 ### 6. create giphi files label

 ### 7. Save pickle files
 --- 7.  0.1 min ---

 ### 8. get tweets for every user (even w/ no tweets)
/gpfsscratch/rech/kdj/unn89uy/GNN_QC/data/data_ZARATE/data_ZARATE_translated_v3/menciones-11-18marzo.csv
Total lines (file):  406869
Total lines (df):  406869 vs cpt= 406869
 --- 8.  0.32 min ---


 ### 8. Save ALL in dataset
 **** TOTAL time for topic :  0.68 hours ****



 ********* TIME STEP 1: DATA PROCESSING -->  11.3 hours *********




############################# STEP 2 - CREATE COMPLETE DATASET ############################# 

 
 ### 1. create dict by tweets for all topics
 ********* TIME STEP 2: CREATE COMPLETE DATASET -->  0.04 hours *********




############################################ STEP 2- TRAIN bert model ############################################ 

<<<<<<<<<<<<<<<<<<<< TRAIN BERT MODEL FT >>>>>>>>>>>>>>>>>>>>>>>
******************************
       INIT PARAMETERS       
+ nbs topics train/test :  20 10
+ device :  ['0']
+ bert_epochs :  30
+ bert_batches :  32
+ max_length :  256
+ lr_rate :  2e-05
+ truncate :  True
+ discr_lr :  True
+ *early stoping*
******************************
/gpfsscratch/rech/kdj/unn89uy/GNN_QC/data/data_objects/USR_QC_connex//ZARATE/RETWEET/TEXT/RETWEET_BERT_basic.pth
 > add weight decay
 > min_nodes: 6094
 >> early_stop= 3
------------------ 0 ---------------------------
 > Texts padded or truncated to 256 length!
 ! best model !
 > Texts padded or truncated to 256 length!
In epoch 0, train loss: 0.330 + train acc: 0.983
           > BEST: In epoch 0, train_loss: 0.330 + train_acc: 0.983
 > len(X_train): 4 | balanced ? [30, 30]
 --> time : 45.62 min --- 
*******
metric: 0.5597391736554347 0.752496805780315
              precision    recall  f1-score   support

           0       0.75      0.36      0.48    146307
           1       0.49      0.84      0.62    107195

    accuracy                           0.56    253502
   macro avg       0.62      0.60      0.55    253502
weighted avg       0.64      0.56      0.54    253502

 > len(X_train): 253502 | balanced ? [15, 15]
------------------------------------------------- 

------------------ 1 ---------------------------
 > Texts padded or truncated to 256 length!
 ! best model !
 > Texts padded or truncated to 256 length!
In epoch 1, train loss: 0.328 + train acc: 0.985
           > BEST: In epoch 1, train_loss: 0.328 + train_acc: 0.985
 > len(X_train): 4 | balanced ? [30, 30]
 --> time : 45.62 min --- 
*******
metric: 0.7100614590811907 0.6029456098199764
              precision    recall  f1-score   support

           0       0.86      0.59      0.70    146307
           1       0.61      0.87      0.72    107195

    accuracy                           0.71    253502
   macro avg       0.74      0.73      0.71    253502
weighted avg       0.75      0.71      0.71    253502

 > len(X_train): 253502 | balanced ? [15, 15]
------------------------------------------------- 

------------------ 2 ---------------------------
 > Texts padded or truncated to 256 length!
 > Texts padded or truncated to 256 length!
In epoch 2, train loss: 0.336 + train acc: 0.977
           > BEST: In epoch 1, train_loss: 0.328 + train_acc: 0.985
 > len(X_train): 4 | balanced ? [30, 30]
 --> time : 45.44 min --- 
*******
metric: 0.7100614590811907 0.6029456098199764
              precision    recall  f1-score   support

           0       0.86      0.59      0.70    146307
           1       0.61      0.87      0.72    107195

    accuracy                           0.71    253502
   macro avg       0.74      0.73      0.71    253502
weighted avg       0.75      0.71      0.71    253502

 > len(X_train): 253502 | balanced ? [15, 15]
------------------------------------------------- 

------------------ 3 ---------------------------
 > Texts padded or truncated to 256 length!
 > Texts padded or truncated to 256 length!
In epoch 3, train loss: 0.335 + train acc: 0.978
           > BEST: In epoch 1, train_loss: 0.328 + train_acc: 0.985
 > len(X_train): 4 | balanced ? [30, 30]
 --> time : 45.37 min --- 
*******
metric: 0.7100614590811907 0.6029456098199764
              precision    recall  f1-score   support

           0       0.86      0.59      0.70    146307
           1       0.61      0.87      0.72    107195

    accuracy                           0.71    253502
   macro avg       0.74      0.73      0.71    253502
weighted avg       0.75      0.71      0.71    253502

 > len(X_train): 253502 | balanced ? [15, 15]
------------------------------------------------- 

------------------ 4 ---------------------------
 > Texts padded or truncated to 256 length!
 > Texts padded or truncated to 256 length!
In epoch 4, train loss: 0.352 + train acc: 0.962
           > BEST: In epoch 1, train_loss: 0.328 + train_acc: 0.985
 > len(X_train): 4 | balanced ? [30, 30]
 --> time : 45.47 min --- 
*******
metric: 0.7100614590811907 0.6029456098199764
              precision    recall  f1-score   support

           0       0.86      0.59      0.70    146307
           1       0.61      0.87      0.72    107195

    accuracy                           0.71    253502
   macro avg       0.74      0.73      0.71    253502
weighted avg       0.75      0.71      0.71    253502

 > len(X_train): 253502 | balanced ? [15, 15]
------------------------------------------------- 

------------------ 5 ---------------------------
 > Texts padded or truncated to 256 length!
 > hop we stop, new_train_loss= 0.38723623773719296 best train loss= 0.32796211652976065 ==> cpt_early= 3
 > Texts padded or truncated to 256 length!
----------------------- FINAL METRICS TRAIN ---------------------------- 

 > best epoch: 1  | train_loss:  0.32796211652976065 | train_acc 0.9852723990810633 \ runtime= 8056.017346382141
------------------- ----------------------------- ---------------------------- 

----------------------- FINAL METRICS TEST ---------------------------- 

 > test_loss:  0.6029456098199764 | test_acc 0.7100614590811907
 > len(X_test): 4 | not balanced ? [15, 15] 

              precision    recall  f1-score   support

           0       0.86      0.59      0.70    146307
           1       0.61      0.87      0.72    107195

    accuracy                           0.71    253502
   macro avg       0.74      0.73      0.71    253502
weighted avg       0.75      0.71      0.71    253502

------------------- ----------------------------- ---------------------------- 

- model saved!  /gpfsscratch/rech/kdj/unn89uy/GNN_QC/data/data_objects/USR_QC_connex//ZARATE/RETWEET/TEXT/RETWEET_BERT_basic.pth
 ********* TIME STEP 2 - TRAINING MODEL -->  4.65 hours *********




############################################ STEP 3- GET QC SCORES ############################################ 


 ### 1. Get TEST prediction, and QC score !
 > nbs_topics: 10
------------------------------------------- END SHELL GNN_QC -----------------------------------------
